500
61
65
17
33
28
39
10
17
50
67
8
4
94
34
81
42
53
7
40
34
31
66
80
78
100
36
64
53
87
52
45
33
6
48
97
96
87
60
13
8
64
20
38
100
23
13
8
75
100
65
75
68
91
60
3
7
33
20
79
82
91
49
27
89
97
97
69
72
93
98
69
73
43
53
99
47
39
35
76
23
13
5
26
96
77
29
49
39
48
89
57
99
66
62
10
47
30
44
46
40
20
11
50
23
60
81
28
34
87
82
53
35
95
89
84
3
93
22
10
91
36
64
30
15
43
7
47
18
39
82
4
94
87
67
12
69
53
99
67
86
94
97
1
26
13
60
58
14
20
86
29
17
60
74
43
49
39
16
85
84
3
52
95
13
21
35
40
52
18
80
66
74
79
73
66
92
59
57
21
3
67
58
22
71
24
60
94
73
38
37
47
70
31
62
34
40
45
62
71
56
57
59
54
87
6
61
37
68
63
18
16
4
8
24
63
58
18
60
66
14
57
56
23
41
66
60
42
86
34
100
45
77
30
74
24
73
23
63
31
43
9
93
31
9
20
1
75
13
63
42
31
8
27
60
44
15
47
60
76
46
56
22
34
83
88
39
85
20
81
1
68
79
40
69
53
17
10
43
50
70
79
55
32
65
81
39
48
82
1
43
12
76
88
73
13
89
27
63
31
75
22
23
42
40
14
92
25
25
59
49
55
83
6
51
77
63
89
39
1
17
13
23
59
82
50
20
87
11
27
6
60
93
90
53
48
4
34
90
61
67
16
16
93
41
25
93
2
60
19
11
98
56
77
58
93
76
86
47
1
54
79
32
68
81
35
46
5
25
23
88
24
86
51
71
32
1
36
93
18
17
8
13
62
2
22
2
31
21
56
54
57
54
9
11
4
68
52
2
66
66
34
5
96
30
33
17
15
58
25
9
11
48
95
31
11
29
15
54
83
79
87
95
36
15
67
31
89
97
13
74
69
44
9
42
84
33
36
53
53
76
39
56
20
80
17
81
10
19
36
68
82
100
74
56
77
17
60
82
82
20
23
92
86
27
91
86
57
15
90
73
27
30
90
88
9
45
31
4
68
88
44
48
28
59
50
90
98
25
92
17
42
54
1
15
64
68
72
23
89
79
6
3
62
87
30
25
9
72
69
75
76
38
75
59
50
25
63
52
43
56
70
59
79
53
79
38
4
4
88
70
67
65
13
18
34
9
92
4
68
97
88
91
72
35
42
31
32
13
23
54
96
45
54
58
83
78
13
62
62
90
98
32
18
62
51
83
13
7
25
11
28
74
66
76
39
31
32
61
89
18
71
25
88
82
2
22
74
77
10
14
30
39
56
15
59
17
99
96
36
39
96
4
4
25
98
57
70
5
46
63
46
39
54
84
48
28
34
82
78
75
88
53
83
71
74
91
69
84
73
43
15
80
18
28
46
17
42
27
74
97
20
51
21
18
65
50
3
39
37
79
40
37
7
21
4
10
24
74
49
61
76
100
19
38
75
44
42
7
20
65
82
24
47
97
77
95
100
55
8
17
37
79
44
33
5
96
16
13
75
59
22
97
95
46
80
67
80
30
36
56
45
78
14
16
25
56
39
59
97
48
48
50
36
97
39
10
59
76
50
5
20
64
4
81
18
95
34
69
18
12
23
36
55
38
13
46
27
18
20
92
75
82
77
51
18
56
72
3
27
97
2
50
28
3
2
47
55
39
59
38
72
53
59
15
69
30
55
27
91
60
52
95
20
23
70
18
23
43
27
4
70
12
38
19
50
9
26
17
53
67
73
73
93
36
1
68
4
72
26
3
22
57
58
92
42
46
33
33
54
13
8
20
87
87
78
1
10
4
15
22
62
7
45
89
74
17
20
68
22
13
21
62
78
89
63
30
91
7
19
61
35
27
50
25
80
22
81
93
20
32
52
49
92
56
32
78
19
36
49
28
35
92
100
19
87
83
70
48
54
37
24
58
87
42
18
40
80
46
100
71
52
100
87
68
44
97
71
78
69
24
74
55
89
5
1
29
33
96
61
5
90
69
54
16
84
6
8
39
56
37
79
57
15
62
17
91
96
6
98
91
83
85
90
83
89
65
77
42
7
100
78
8
71
52
66
12
2
42
41
16
53
90
53
48
42
35
98
1
59
73
85
85
38
65
20
9
16
88
100
75
48
96
41
1
81
17
88
10
12
4
39
44
19
98
42
76
78
75
50
87
17
28
90
65
52
72
11
72
91
17
53
10
21
36
64
88
79
83
9
17
35
25
81
95
100
20
40
37
65
32
76
4
69
22
42
65
46
89
63
69
1
12
67
28
80
11
39
42
82
22
60
95
26
36
87
31
34
23
44
38
55
11
29
45
45
97
64
58
84
45
78
38
64
44
70
87
37
74
3
38
76
23
65
72
58
39
56
23
59
70
72
44
84
93
33
65
24
10
50
47
72
18
81
94
30
22
68
24
92
26
45
8
63
55
82
57
41
88
15
100
6
6
52
36
16
66
54
34
63
1
65
62
31
18
84
53
72
76
92
12
88
73
89
74
31
64
57
16
3
75
44
46
65
8
40
30
61
4
29
43
34
19
52
27
42
36
26
20
63
98
36
50
9
63
69
76
20
93
88
29
71
54
19
78
83
87
93
46
22
34
28
41
47
71
52
9
54
78
89
30
81
82
35
1
71
98
83
26
18
39
37
99
2
4
52
80
32
57
53
99
16
21
46
12
79
32
28
2
80
9
6
43
7
97
41
16
62
23
16
63
63
29
28
97
75
93
82
78
14
57
100
11
92
86
21
55
47
84
6
20
96
24
73
52
27
58
29
13
88
33
4
90
70
76
6
1
53
80
77
46
59
7
22
80
72
27
7
8
15
80
84
71
85
60
93
62
39
29
5
66
40
85
34
46
4
97
72
64
11
20
16
57
39
65
69
44
48
73
74
25
9
91
11
63
68
80
56
93
13
93
6
72
41
42
57
2
38
97
99
84
42
74
59
69
10
53
33
98
54
26
95
86
2
82
26
43
23
86
8
68
12
61
9
46
65
12
40
26
39
90
80
64
26
71
42
25
32
14
49
29
50
91
74
21
52
41
43
32
20
55
38
72
81
49
86
35
73
36
47
93
69
93
96
65
83
35
59
86
73
45
72
56
20
16
12
94
13
24
44
37
94
6
91
41
8
14
29
5
27
18
57
5
30
38
86
1
33
12
92
46
1
56
86
69
35
76
8
36
73
17
10
60
14
1
57
93
69
70
40
93
62
21
25
59
97
60
75
32
52
94
100
26
7
5
40
77
87
98
19
3
20
53
80
72
4
80
63
89
86
45
55
54
80
35
80
30
76
77
70
70
87
7
59
83
48
9
10
5
73
62
29
43
69
67
60
76
4
9
90
56
57
66
46
17
90
62
37
37
31
59
75
57
27
2
82
15
15
87
37
34
48
58
84
3
1
35
23
87
93
69
86
89
51
81
49
64
73
90
19
47
9
38
73
34
93
2
21
42
71
33
96
28
87
71
2
98
78
61
18
98
68
48
30
81
40
86
65
32
23
8
72
62
65
36
79
36
76
1
86
67
81
45
100
20
81
87
24
74
81
94
32
27
28
6
24
19
53
25
97
54
63
98
76
62
41
9
32
81
63
63
1
38
1
2
13
33
37
1
41
86
76
14
95
58
74
62
20
57
23
19
97
35
85
81
20
70
65
22
33
37
42
64
6
87
57
89
53
24
66
39
80
61
52
66
23
64
58
45
39
30
23
85
74
80
27
72
34
100
29
22
87
68
55
45
79
36
62
41
5
24
69
87
28
2
45
56
7
23
70
92
20
98
68
95
78
74
84
66
26
94
58
18
2
63
83
54
97
33
91
66
76
58
20
23
43
44
87
22
97
62
85
30
16
43
43
91
83
59
51
85
87
62
58
25
42
7
54
54
93
72
86
12
69
33
95
40
91
50
99
2
13
29
34
86
98
88
10
56
38
98
19
15
87
34
11
31
4
5
67
61
88
10
65
27
80
87
66
29
51
26
54
50
63
18
68
13
28
100
32
69
81
14
99
55
39
43
73
83
78
86
62
89
31
9
99
19
64
86
22
37
80
77
89
100
58
87
51
3
5
4
12
20
19
97
34
28
50
57
62
63
96
2
57
69
72
43
79
33
48
21
10
94
74
8
60
8
58
50
28
73
69
8
73
67
96
88
29
37
95
90
39
27
45
22
45
94
31
11
37
58
11
79
6
2
51
14
20
34
62
87
18
73
31
31
97
2
60
77
62
14
22
13
3
61
5
96
70
56
100
18
13
78
24
66
31
10
98
15
40
45
32
100
96
73
13
62
23
31
73
90
16
69
43
99
36
30
59
49
29
7
87
50
34
84
58
84
58
25
55
78
91
87
22
16
59
51
93
70
18
93
47
16
14
95
78
47
88
49
35
18
84
93
4
80
13
55
54
33
90
91
61
24
33
96
82
24
47
37
52
51
65
19
38
4
98
18
69
55
44
43
33
79
9
85
20
5
24
43
70
47
15
94
92
49
71
38
54
24
79
22
29
87
62
43
57
32
4
20
82
92
36
10
24
35
20
90
11
60
26
76
57
69
35
9
34
71
68
57
62
80
92
59
25
7
56
26
81
9
100
48
5
9
91
47
78
58
78
77
29
7
67
66
94
33
21
44
49
31
18
90
26
85
31
52
56
3
46
6
51
24
53
42
92
31
35
48
44
39
3
14
98
7
26
3
55
47
84
66
29
5
94
44
24
48
24
14
1
13
14
86
69
6
37
61
46
60
16
53
97
98
72
21
76
17
93
94
42
21
49
58
36
8
35
68
60
12
87
37
87
57
67
8
14
43
69
86
9
68
96
86
45
69
86
97
18
50
79
14
70
100
32
30
99
96
29
6
10
1
88
9
49
3
44
62
84
82
38
59
19
82
33
27
57
74
86
29
93
93
64
49
11
31
31
88
48
70
90
98
27
26
5
38
15
10
44
41
27
27
32
80
94
96
20
5
21
37
91
2
77
37
8
75
33
12
11
54
39
46
55
4
77
67
47
86
2
17
12
6
42
72
22
41
83
44
69
29
10
81
5
22
30
47
52
43
43
49
19
82
56
1
17
24
78
60
89
92
92
93
29
33
93
7
76
19
51
33
9
17
19
4
11
20
47
56
31
79
79
67
58
95
9
10
67
43
92
64
6
65
73
40
15
68
63
20
82
45
57
76
19
77
82
68
78
21
81
44
7
57
43
34
53
51
3
67
88
23
20
3
40
48
86
95
1
46
10
49
81
27
20
63
45
90
32
98
33
27
61
38
83
28
31
19
75
28
75
54
49
25
61
96
73
64
40
15
79
98
73
81
16
11
67
71
47
42
25
100
7
27
38
64
91
15
80
18
62
16
89
72
36
79
89
78
72
55
84
88
64
23
90
20
55
17
77
96
85
86
75
26
94
70
69
2
21
60
47
45
95
43
21
59
1
91
96
59
99
39
59
48
11
53
85
56
94
25
4
77
86
32
19
72
2
15
13
9
82
83
71
46
90
52
32
91
30
91
23
67
13
72
89
77
91
59
65
27
66
28
82
14
84
54
34
12
11
1
68
52
70
90
64
46
80
92
86
3
82
36
36
46
50
81
63
73
74
56
3
26
35
23
69
80
27
44
97
28
29
80
52
22
16
41
81
84
16
61
13
81
87
51
54
68
51
10
19
90
10
63
26
46
97
57
78
53
42
98
28
33
71
18
72
33
63
7
37
18
58
4
35
69
28
70
64
74
35
56
5
9
40
86
40
23
37
6
63
76
78
4
97
88
38
13
1
12
14
71
11
20
96
84
3
75
14
84
49
27
6
60
27
30
38
15
67
25
98
22
61
8
54
77
23
43
27
34
80
55
29
22
62
16
57
98
71
29
65
70
98
27
83
44
17
78
72
85
69
45
63
4
31
11
89
51
19
6
75
61
60
44
93
79
56
67
24
3
21
97
42
57
80
78
87
37
36
4
38
49
15
5
37
30
26
49
90
75
75
75
94
25
80
45
28
78
13
61
60
14
83
43
18
49
25
97
91
68
73
86
34
20
84
74
8
81
66
44
6
23
6
1
8
79
50
69
43
28
23
97
99
6
39
96
56
57
83
20
79
47
41
26
19
54
30
3
16
7
80
86
83
14
36
74
39
24
42
73
9
89
38
29
80
22
23
76
14
33
78
23
2
15
68
37
66
49
53
57
39
51
44
70
92
78
77
52
20
22
60
77
95
31
78
33
43
27
36
45
45
60
89
86
73
48
27
49
47
13
35
94
81
43
66
14
21
40
34
93
28
3
30
85
82
38
60
56
36
56
6
26
19
9
36
51
64
43
78
13
72
35
14
27
34
83
16
53
7
68
30
68
90
23
71
59
77
100
71
85
49
22
33
54
57
28
20
96
74
6
84
13
55
91
61
20
92
69
41
38
73
10
42
68
77
8
99
95
86
93
15
83
44
62
4
30
30
1
1
28
7
22
10
98
50
80
55
13
65
3
83
77
93
39
95
92
85
50
42
27
23
64
24
41
57
48
17
55
22
22
32
2
15
52
36
42
34
96
51
67
21
84
90
53
92
1
82
53
5
95
10
11
1
2
3
4
5
6
7
8
9
10
11
96
14
43
95
6
94
85
34
99
1
73
36
46
81
44
98
57
11
87
38
63
88
75
96
17
74
47
58
79
23
65
37
62
68
25
49
84
79
10
40
36
39
11
30
55
81
86
45
64
9
29
52
65
63
89
87
98
68
76
78
76
45
78
74
10
50
44
20
20
33
2
89
66
94
56
72
11
96
100
40
76
89
78
13
79
22
56
82
17
50
21
26
20
80
66
40
74
4
36
77
48
26
39
9
77
16
25
28
96
98
6
74
98
94
7
57
67
41
71
65
28
66
56
41
78
25
71
71
71
13
19
59
48
32
42
50
56
70
87
82
57
50
76
7
46
39
59
76
21
100
83
89
30
18
45
32
89
36
99
52
81
59
97
46
1
41
18
58
64
52
77
91
4
67
9
71
92
39
3
74
49
31
14
87
57
78
42
9
96
13
22
68
26
2
51
10
37
71
14
1
40
48
1
91
18
59
32
1
18
3
15
94
40
81
69
19
32
99
71
86
54
43
88
5
81
76
52
97
31
11
99
90
74
48
35
45
11
25
82
14
91
75
87
73
11
98
53
37
21
9
85
76
87
72
27
6
49
8
63
5
97
1
96
2
47
94
2
34
36
17
54
36
15
89
70
71
93
74
96
40
58
84
71
42
25
77
21
30
26
61
94
93
4
72
78
5
6
23
37
37
79
91
39
18
53
43
89
95
67
69
34
1
95
45
8
23
27
59
47
60
85
93
96
69
78
31
15
3
55
95
80
91
9
98
85
2
70
26
23
43
90
92
70
71
60
91
68
83
66
6
66
88
23
82
90
57
91
10
5
34
35
90
1
14
91
37
91
50
81
83
70
3
99
50
96
35
91
59
78
37
85
5
12
76
30
99
7
86
69
64
55
16
63
89
1
35
4
65
76
91
50
76
82
78
4
76
65
13
75
79
1
23
79
31
33
77
14
87
66
74
34
91
19
31
41
59
10
72
70
77
19
24
83
91
11
3
80
71
24
77
76
89
34
54
90
15
26
40
70
8
70
92
99
88
41
81
58
57
100
81
1
63
18
6
41
65
19
45
13
14
99
9
74
75
2
75
12
88
4
32
84
82
4
60
32
39
12
46
46
92
5
26
57
83
94
22
50
8
97
11
77
82
5
100
60
86
23
36
88
3
32
13
26
12
70
98
22
24
92
42
11
76
88
96
4
18
57
3
85
80
90
76
27
83
21
63
14
3
72
18
65
59
66
38
69
42
23
16
64
48
66
93
62
74
89
21
97
17
83
96
46
1
83
38
81
67
35
60
4
69
73
75
58
46
89
39
3
70
89
99
43
77
78
48
1
72
64
64
89
64
25
96
70
52
15
41
6
51
1
66
7
26
52
39
21
37
47
63
70
64
60
51
45
25
58
72
1
8
48
9
86
2
47
65
59
94
11
68
30
24
53
79
71
51
49
29
74
20
91
50
91
48
38
89
48
89
44
37
41
98
67
6
43
56
34
83
15
90
16
58
4
91
94
59
40
8
34
13
47
60
96
49
62
78
76
12
73
37
18
86
12
63
84
70
83
83
26
24
96
7
9
4
23
3
27
15
73
11
37
81
58
90
5
2
84
45
76
61
77
51
42
3
62
81
54
72
56
35
9
22
40
63
12
35
97
86
29
52
89
73
7
16
5
53
1
17
71
91
12
48
71
72
22
4
14
56
44
61
46
42
41
40
28
76
23
84
61
58
1
13
92
38
98
71
75
18
72
18
83
33
33
84
1
49
4
34
61
48
72
85
84
78
52
85
66
11
76
22
68
86
22
94
56
60
56
66
71
87
85
66
44
87
66
43
62
22
28
71
60
96
44
24
23
56
16
30
67
71
7
51
89
75
16
21
33
67
45
63
25
34
95
88
52
17
75
77
77
87
75
50
88
12
15
45
3
30
64
38
71
76
51
19
22
84
15
72
13
61
84
80
10
30
85
12
56
90
42
74
45
81
39
38
3
46
82
72
81
61
18
52
12
1
60
76
69
91
68
85
68
71
6
43
83
19
66
1
42
50
69
99
87
40
61
18
10
32
91
83
65
5
18
8
96
39
69
32
77
45
56
57
16
17
36
15
22
89
98
54
69
14
18
33
41
98
58
2
18
91
87
70
100
27
36
40
8
40
52
45
72
56
35
17
53
28
10
70
2
13
11
46
85
50
42
49
68
16
62
84
34
37
20
41
63
30
4
25
36
42
36
2
60
83
58
90
86
91
49
32
56
88
9
38
63
45
91
61
71
22
24
26
59
84
28
74
45
86
10
27
4
48
64
62
38
67
17
49
2
5
74
71
52
8
79
40
78
18
37
71
99
11
77
54
14
86
50
28
25
3
40
47
55
12
46
92
62
37
97
80
76
32
86
46
11
78
57
9
13
53
19
19
14
92
89
97
90
49
94
83
89
50
2
85
40
68
99
1
97
60
7
82
56
37
82
97
79
34
54
96
86
29
31
6
37
18
12
34
11
46
56
56
5
61
25
46
12
90
69
17
44
62
99
50
51
99
99
25
16
83
98
45
48
76
29
80
34
48
17
16
17
45
69
64
11
44
17
80
100
14
64
16
30
26
83
74
23
79
73
98
9
92
71
30
47
79
89
51
52
8
60
59
13
89
3
68
39
47
15
44
98
26
48
91
20
18
99
78
37
86
47
80
65
51
64
24
97
25
70
60
93
85
100
41
48
50
2
77
89
16
25
5
60
59
58
51
95
93
51
69
4
90
62
73
78
80
92
84
8
93
58
45
13
42
1
58
97
9
93
62
85
91
95
35
94
35
19
35
73
57
47
8
50
40
76
100
3
29
19
54
40
8
31
75
5
66
69
93
95
98
25
94
85
66
89
38
64
53
76
42
55
14
77
61
49
40
10
77
19
37
44
19
53
58
16
65
77
21
13
25
97
2
33
66
75
52
83
10
22
87
19
35
10
54
56
79
99
85
70
16
92
18
23
33
23
47
82
44
75
87
86
45
14
82
89
89
24
56
51
98
87
1
20
78
58
44
13
94
9
67
98
24
96
8
77
34
31
6
9
19
29
39
49
59
41
96
87
86
7
51
5
49
15
23
100
38
96
81
82
81
31
62
91
92
33
86
83
95
85
2
23
75
90
22
36
71
94
51
17
42
86
62
31
20
90
14
14
37
40
69
20
93
93
16
62
79
63
91
95
90
61
79
14
9
81
12
44
8
9
33
10
9
16
67
10
45
66
26
93
33
73
68
20
75
76
50
49
31
67
49
64
76
24
71
93
97
48
73
3
47
1
89
8
83
40
100
87
4
4
97
20
11
61
45
74
89
88
56
35
51
48
97
38
64
38
83
9
95
22
3
14
80
17
45
7
86
23
91
38
38
54
23
24
21
4
46
97
12
87
8
95
49
32
43
39
63
46
12
37
90
72
18
77
48
48
60
27
26
44
24
10
63
72
59
34
24
22
37
96
74
65
80
9
77
15
22
95
82
54
2
63
85
76
3
82
58
85
24
6
79
23
39
30
24
90
81
23
14
66
50
55
86
42
10
12
77
11
99
31
37
74
67
97
43
35
59
40
69
70
28
6
92
71
31
41
90
16
24
1
21
76
89
60
61
45
25
63
38
60
61
15
60
69
56
40
43
69
36
90
66
4
47
92
26
32
93
26
94
20
69
24
20
13
72
88
72
60
59
64
83
46
16
86
49
32
90
37
65
3
40
95
72
95
48
54
59
66
22
99
29
63
59
67
82
74
83
62
55
11
15
18
88
24
97
42
24
63
65
40
5
65
36
49
35
97
88
71
15
97
4
81
12
75
68
35
18
43
64
65
91
1
37
87
7
19
96
87
37
22
32
39
85
6
20
57
25
59
22
89
83
22
75
33
9
3
13
82
42
8
40
55
62
11
32
77
3
19
17
11
18
93
6
84
48
76
22
90
43
26
15
62
23
30
85
84
15
41
60
43
74
2
40
27
55
53
68
86
50
49
26
59
17
79
63
64
97
89
79
71
96
43
10
49
2
69
12
2
38
80
2
92
36
82
10
45
1
5
40
72
6
68
93
17
89
47
77
100
65
40
75
100
39
63
90
67
80
82
33
59
93
19
8
81
47
70
5
6
65
47
15
77
65
38
2
22
73
72
58
93
44
79
45
19
8
75
21
86
1
8
46
80
96
4
74
1
46
97
90
97
37
16
85
58
70
65
65
64
65
27
5
48
7
7
8
68
87
19
92
97
58
7
32
30
58
100
43
16
66
48
45
62
85
95
7
29
15
19
89
9
11
54
30
70
69
37
26
22
15
28
87
85
85
13
58
59
60
65
56
68
77
7
61
58
70
44
44
36
16
40
65
59
55
53
84
4
33
22
68
95
73
86
58
41
86
70
65
8
2
3
70
91
95
27
69
92
74
41
70
40
63
28
90
14
83
98
69
98
65
96
45
20
20
73
26
50
21
83
6
7
88
89
76
25
94
31
61
57
66
92
35
72
64
86
98
73
44
1
1
91
35
69
11
49
86
78
36
97
20
26
30
31
1
34
48
85
100
19
18
5
21
16
47
22
2
64
16
8
73
69
86
16
84
16
92
52
79
27
13
48
80
13
91
45
49
96
79
71
94
80
18
56
98
99
49
52
56
52
8
73
41
83
33
28
84
59
68
12
61
22
63
82
23
33
35
99
30
2
66
71
13
59
40
70
31
80
32
96
82
90
81
41
94
87
46
49
52
78
79
90
100
38
92
80
19
12
61
24
55
19
96
14
11
39
20
69
68
35
42
77
14
50
22
26
43
31
62
87
67
76
19
88
68
69
5
1
36
31
34
29
1
11
83
31
93
89
95
29
13
46
81
33
96
26
41
33
72
7
86
67
85
67
59
47
41
41
48
97
21
3
76
7
68
92
1
57
12
20
99
62
29
20
95
79
51
66
96
1
60
42
74
96
32
3
14
68
30
99
28
15
77
83
15
71
75
10
9
23
99
50
61
34
66
44
76
100
50
68
84
56
98
90
80
88
99
20
22
47
5
20
54
37
7
100
95
60
40
89
80
13
85
98
89
70
35
8
65
3
30
88
71
79
72
78
70
41
55
2
5
5
98
36
79
76
6
63
13
97
14
97
46
76
47
14
36
97
27
18
43
90
96
86
36
79
42
63
20
70
6
70
7
74
35
23
84
81
8
85
59
99
6
40
46
47
68
38
29
69
53
92
33
86
91
68
8
63
78
9
47
25
7
3
8
94
63
85
11
81
100
97
49
92
13
33
1
15
28
96
94
36
38
64
72
78
33
13
92
90
83
75
4
17
97
27
52
4
69
4
7
69
58
91
10
30
2
88
56
55
89
48
18
9
16
23
98
63
41
2
66
45
10
80
72
53
16
1
26
95
46
72
25
54
18
66
63
85
19
4
53
25
53
5
37
52
91
34
96
23
88
16
70
69
60
52
16
39
62
66
3
24
15
71
60
42
13
80
10
84
39
80
28
51
13
79
8
84
64
26
77
57
33
81
27
20
77
10
94
81
74
41
45
13
65
81
37
58
25
45
42
59
14
20
94
54
11
79
11
51
12
88
77
11
32
15
68
28
8
61
79
60
22
40
1
14
82
98
21
88
70
69
49
91
29
11
35
17
54
88
95
73
67
84
59
26
59
62
12
86
28
80
61
21
18
80
60
7
34
29
37
1
32
32
100
1
98
56
4
45
75
77
1
1
66
74
58
97
29
67
80
13
13
38
29
20
61
37
80
40
51
96
38
4
67
77
20
30
44
18
28
36
24
24
32
13
44
46
57
77
73
1
2
61
37
9
64
41
58
34
10
72
2
38
84
50
53
50
100
78
15
13
62
85
8
53
8
78
7
10
35
26
84
8
94
51
22
47
81
6
19
76
49
60
36
19
84
26
61
5
73
47
69
25
53
41
78
55
85
38
52
41
68
17
84
74
77
88
74
23
70
43
6
60
85
40
88
77
32
53
39
95
24
75
40
75
86
47
74
70
17
4
12
43
41
16
47
69
41
52
11
60
57
91
45
59
90
7
81
4
66
97
9
17
86
19
10
12
55
76
68
80
31
41
39
23
34
24
22
28
40
24
70
92
41
100
93
1
96
33
39
35
25
99
100
5
77
85
77
49
63
74
90
100
70
25
14
75
79
86
18
10
42
86
88
95
3
8
35
36
43
61
23
11
98
99
39
6
87
32
51
31
4
74
86
90
30
83
84
19
61
69
98
28
63
48
97
96
70
73
100
84
52
16
18
94
56
8
70
85
56
55
98
85
26
11
46
60
75
94
35
65
84
99
52
17
18
29
20
68
54
44
15
45
5
27
50
49
58
63
54
45
67
51
1
4
5
45
5
2
33
93
89
72
3
18
19
30
33
37
91
23
57
11
27
9
100
7
28
80
41
16
39
53
82
48
86
99
97
93
2
38
26
11
84
96
45
53
59
17
4
9
76
44
8
75
41
19
17
38
53
67
13
77
8
38
58
26
89
52
59
65
1
95
7
86
33
53
64
90
81
79
94
98
84
65
55
40
14
78
60
6
31
70
87
82
68
29
98
60
49
71
4
46
13
47
11
49
91
90
15
94
24
79
37
44
93
88
48
98
87
44
45
54
88
92
37
47
25
73
97
44
63
19
85
73
68
28
67
55
88
72
49
74
12
51
57
13
56
66
53
86
51
44
23
22
91
18
61
69
93
28
50
9
34
56
72
86
2
52
33
42
88
86
79
83
28
49
75
4
61
86
15
97
78
53
92
99
31
34
14
68
9
20
13
7
20
2
46
21
26
37
41
17
16
26
37
73
97
40
58
98
67
93
21
86
100
6
58
97
90
24
92
13
32
87
35
71
36
14
69
59
48
55
34
89
98
16
77
19
33
89
58
73
59
33
45
85
51
93
48
38
11
86
42
57
65
44
20
18
1
66
70
88
72
78
77
6
95
13
52
19
85
4
51
2
80
24
16
89
79
52
95
64
38
62
53
59
16
38
60
65
89
23
61
86
91
67
58
36
97
42
48
19
11
42
2
64
47
30
13
88
30
16
59
37
100
65
95
57
22
85
46
66
96
53
60
31
46
26
94
75
1
7
65
26
36
91
27
17
63
3
87
1
77
91
84
7
18
42
77
90
98
96
61
76
61
83
20
59
34
5
8
55
37
80
39
88
64
97
68
95
44
86
24
30
34
36
54
93
56
91
70
32
57
1
11
83
15
81
78
21
39
87
10
12
33
15
29
86
15
16
88
23
73
24
47
14
36
41
5
78
24
22
27
21
47
10
59
24
19
85
53
10
39
38
1
47
2
100
81
65
86
90
3
70
97
87
2
58
75
90
50
76
39
7
90
7
91
98
94
34
67
22
46
57
65
86
6
80
73
3
24
79
28
81
96
98
38
31
10
22
11
98
32
39
67
38
81
47
5
17
78
1
82
7
88
71
73
73
54
35
89
56
48
58
74
100
75
68
97
13
84
25
93
67
70
93
3
18
7
34
21
88
27
45
95
4
97
99
26
5
58
65
66
43
100
10
60
63
88
47
1
33
100
19
19
71
21
74
62
1
36
72
46
43
8
39
87
4
37
86
5
53
84
70
52
75
76
59
76
83
23
46
51
62
95
35
6
46
20
49
68
15
57
55
64
13
24
20
32
53
12
84
74
47
43
15
41
74
8
17
25
25
8
41
43
77
100
4
79
27
41
40
69
31
40
78
19
63
38
5
1
89
39
71
10
66
96
75
7
12
75
68
34
82
46
49
41
94
19
36
87
48
62
14
40
27
11
18
44
77
12
86
17
64
99
59
58
84
41
63
4
67
98
62
89
9
65
86
16
66
70
18
36
54
55
67
97
18
6
27
17
71
50
94
9
88
49
90
1
92
53
92
8
73
33
81
59
69
81
17
37
65
94
97
89
32
60
3
18
63
70
36
67
7
40
62
82
3
61
40
96
72
69
68
48
99
34
92
1
14
94
92
54
35
39
43
31
34
11
88
18
84
84
58
1
65
41
26
40
24
77
42
14
21
81
89
96
37
75
36
46
89
64
19
26
75
87
45
16
33
81
64
35
86
13
45
86
7
60
44
38
31
9
61
87
48
50
99
45
62
39
50
64
74
13
97
90
76
92
41
38
77
22
45
47
44
82
54
30
28
5
43
11
43
68
63
27
46
31
47
11
58
35
56
15
87
50
64
29
59
85
79
53
50
37
15
100
52
10
54
6
92
73
47
14
39
3
56
70
95
22
35
64
1
33
53
40
84
84
35
66
29
78
73
24
62
26
100
13
27
26
26
13
47
74
9
1
20
21
3
96
25
12
84
62
77
79
29
73
83
78
20
57
51
34
2
69
99
28
49
58
98
74
16
59
56
12
75
34
26
18
89
92
19
22
96
60
74
26
83
76
87
51
3
78
71
83
2
55
13
21
34
36
70
97
98
46
30
51
96
35
75
63
93
44
29
96
65
42
1
52
80
87
30
58
10
98
75
47
29
82
86
40
56
1
28
10
82
54
89
40
46
30
45
51
39
66
61
72
97
67
25
42
10
22
56
78
88
31
86
41
64
17
2
69
48
69
63
60
78
33
10
42
11
44
95
63
32
100
26
6
100
14
85
32
69
90
98
28
10
91
41
99
72
51
80
13
88
46
33
84
19
100
10
21
99
28
45
44
19
2
22
39
82
32
87
22
41
78
24
50
96
82
70
69
78
22
21
57
90
2
52
94
88
84
50
49
39
78
16
61
65
72
98
59
91
85
49
86
83
76
65
73
64
8
97
78
1
45
92
77
33
18
83
98
71
62
41
88
26
23
94
53
76
48
45
71
1
84
81
97
87
40
47
72
92
9
86
46
97
10
44
49
34
21
49
72
82
1
16
38
81
57
10
100
93
30
57
86
72
1
45
96
64
6
69
49
12
81
35
81
45
85
83
36
10
40
17
71
64
30
40
9
77
7
47
23
83
32
70
57
94
2
71
81
75
58
82
87
65
40
96
30
83
23
36
85
14
51
9
51
45
10
40
97
35
77
69
43
29
35
82
87
92
52
34
45
3
68
98
54
39
98
65
36
62
94
99
54
52
40
13
87
89
69
51
3
53
41
31
94
83
21
78
3
81
65
99
65
48
64
55
74
25
91
18
82
86
65
73
18
9
58
80
61
37
20
50
18
83
70
79
9
61
77
37
91
19
56
75
76
32
27
77
30
18
56
47
32
68
69
48
38
31
71
62
85
43
56
6
6
12
88
45
81
65
98
10
59
16
32
25
93
8
93
33
12
78
39
70
91
76
63
74
52
72
45
13
35
7
40
20
52
78
46
22
8
80
37
31
88
39
96
18
26
23
89
14
28
63
39
99
41
4
80
65
8
94
29
95
60
99
38
28
15
2
10
40
91
20
56
20
95
27
81
52
67
26
29
6
95
67
47
49
99
36
83
84
77
31
34
69
40
44
52
51
61
77
39
92
34
34
60
84
79
94
19
23
24
67
81
85
56
74
54
32
12
91
77
66
29
97
31
94
56
81
19
98
24
58
73
75
94
64
54
61
16
33
68
78
48
94
88
2
100
98
20
44
56
42
48
76
28
24
57
65
8
45
93
17
23
43
95
16
87
17
52
50
87
6
55
49
62
83
45
57
76
30
78
55
100
14
18
2
18
4
8
66
48
41
36
8
52
3
29
76
41
62
33
58
3
75
6
67
84
48
69
83
26
35
14
44
7
1
100
73
5
11
95
58
50
48
36
97
63
99
16
82
55
55
42
3
53
32
6
78
38
91
6
92
96
38
89
48
80
49
65
55
75
5
95
74
78
42
47
56
92
93
71
1
98
59
94
10
91
94
61
36
47
78
36
89
51
58
92
38
46
65
17
59
98
72
8
71
6
96
87
82
14
1
54
80
90
49
99
71
76
2
62
21
66
56
32
49
7
41
71
56
19
56
35
10
75
27
52
9
76
59
4
32
17
30
69
37
9
66
90
56
50
16
71
100
37
91
98
21
98
22
10
72
11
22
28
22
32
80
81
87
79
16
27
92
71
30
69
65
91
38
6
97
53
61
4
19
72
50
18
21
47
55
1
84
48
42
79
83
74
16
15
69
76
57
53
52
82
23
73
56
4
14
17
75
8
12
22
32
18
20
96
68
85
56
95
67
76
36
63
39
70
78
7
77
26
11
18
13
68
38
86
73
25
23
99
98
55
7
62
25
17
46
29
100
85
29
26
88
19
38
69
23
26
5
69
95
70
35
55
10
65
18
59
37
21
29
41
98
23
44
52
6
100
25
5
81
96
37
44
80
21
68
27
32
29
20
21
3
78
65
66
75
79
70
66
55
11
56
39
72
77
91
96
48
22
45
45
4
18
95
1
94
39
7
38
9
54
94
75
33
37
93
42
59
62
86
41
21
57
3
19
25
57
21
35
79
68
71
24
61
58
34
94
3
43
97
26
59
76
60
5
95
86
17
81
35
53
95
68
90
77
25
51
42
6
93
27
85
70
85
93
77
82
85
34
24
69
82
14
81
5
38
29
85
93
42
62
27
87
32
36
96
99
76
48
62
19
56
60
35
39
35
68
26
68
32
12
36
30
29
46
21
64
84
6
62
29
79
44
50
85
8
69
53
41
52
70
65
80
68
50
29
2
78
70
49
87
62
24
63
42
37
26
15
56
91
97
6
33
58
43
89
94
61
38
14
9
87
39
99
74
46
97
72
6
31
76
98
46
20
32
94
15
12
97
49
46
86
55
35
58
66
68
22
35
63
15
39
97
48
81
91
42
66
6
63
57
62
55
66
52
81
78
68
41
91
3
21
23
4
73
54
18
76
53
95
4
55
38
87
38
65
54
22
97
18
13
67
12
8
81
18
46
58
75
92
79
49
56
73
13
69
79
73
52
55
36
4
93
49
68
64
16
52
58
37
85
38
94
60
27
97
70
31
57
44
67
50
100
11
12
78
18
19
34
2
74
61
8
18
87
10
30
89
50
73
100
21
56
43
31
70
92
13
58
6
49
66
44
29
98
81
65
79
92
19
62
70
86
7
82
95
98
55
38
37
80
90
22
73
21
44
79
41
18
29
89
37
55
87
90
10
75
97
20
62
64
87
25
72
77
95
61
66
60
23
33
34
8
86
7
9
33
73
97
34
70
93
40
45
4
76
9
36
97
62
23
55
93
59
83
17
66
78
53
42
38
13
50
97
75
52
49
71
79
24
51
15
89
60
60
97
12
66
55
14
59
96
66
49
87
11
20
96
86
22
4
3
21
56
91
16
63
48
25
71
79
69
39
45
87
64
8
2
49
14
24
75
94
16
81
70
39
93
74
14
2
43
35
4
55
49
82
20
14
60
40
83
6
96
51
93
81
47
64
78
82
33
10
42
93
55
29
95
73
98
2
52
96
27
56
72
84
37
24
71
53
11
42
21
33
9
95
5
87
21
87
54
77
24
64
50
97
63
10
99
74
19
71
56
28
53
12
6
62
95
57
81
32
58
43
42
64
3
95
42
60
71
70
94
73
76
69
8
32
97
72
3
99
25
64
28
88
68
16
12
47
94
75
28
49
69
89
91
99
22
3
63
22
82
14
69
99
26
87
53
43
50
86
75
4
32
65
10
81
49
96
50
80
18
55
26
16
18
74
98
9
80
63
68
53
48
4
94
95
60
26
85
24
68
73
48
1
94
48
11
76
28
77
57
8
71
38
85
4
22
71
98
77
44
36
43
67
95
56
27
61
58
44
60
37
26
45
28
31
1
52
85
59
35
100
61
26
90
48
82
62
42
16
3
91
99
61
61
37
68
95
13
31
41
22
48
40
54
63
27
39
36
33
25
97
43
12
42
45
81
65
61
26
31
18
5
78
96
60
13
49
20
22
8
52
36
96
3
32
44
68
86
51
45
21
35
14
17
45
11
62
100
54
77
20
46
45
21
59
99
28
18
60
50
55
69
66
27
34
18
80
64
38
87
67
72
64
73
90
62
67
58
6
89
18
49
42
33
50
26
63
68
27
47
74
38
30
7
97
19
54
3
9
67
93
75
70
32
33
46
83
92
15
2
3
54
21
32
16
48
85
65
33
87
59
58
38
83
38
96
18
71
7
3
12
68
86
54
58
60
48
16
96
18
82
31
6
77
7
35
53
62
77
5
23
67
78
65
83
45
55
17
59
75
2
69
78
37
36
25
46
11
24
8
59
64
56
82
70
42
30
35
14
6
47
83
95
74
32
54
17
41
74
22
60
74
43
94
12
76
82
96
45
79
28
3
73
4
37
61
72
7
33
94
32
75
49
84
62
82
53
99
79
11
35
79
60
73
100
89
62
3
83
100
70
29
19
76
20
43
29
60
97
58
41
7
75
100
83
18
90
41
99
1
98
62
48
56
10
35
9
60
62
10
17
26
7
66
4
35
93
65
76
37
89
10
23
74
23
25
2
62
76
33
43
10
19
89
99
24
41
96
70
57
79
10
69
41
74
83
54
87
31
26
75
92
48
16
57
88
10
61
11
24
52
84
84
30
6
66
58
28
6
4
82
94
1
22
64
51
49
99
71
24
50
61
16
62
17
12
88
2
27
2
36
42
95
93
1
45
38
68
56
77
58
86
57
17
78
16
38
10
63
41
92
42
89
8
92
76
85
43
7
27
22
59
88
77
68
29
3
2
27
91
7
91
25
17
23
23
97
86
96
41
15
28
71
69
54
92
68
46
35
25
74
8
10
79
21
41
12
50
7
43
53
45
78
26
1
13
26
31
61
27
81
26
99
94
53
58
59
96
96
86
66
7
95
28
85
91
84
61
54
43
22
26
33
1
76
64
10
72
50
20
81
89
48
2
36
94
76
68
49
92
30
42
54
71
72
46
18
4
32
86
86
46
90
49
34
50
34
39
91
78
36
96
4
82
32
92
51
38
94
74
65
4
72
7
74
70
72
100
74
82
28
40
35
98
91
31
51
86
62
72
66
98
35
100
83
93
20
6
90
54
64
70
44
100
99
38
60
17
71
1
44
92
24
42
83
67
80
46
40
28
83
50
40
16
47
11
57
35
16
25
41
75
85
95
53
94
51
45
43
43
62
68
15
41
37
71
37
61
58
15
25
87
100
68
99
63
90
7
25
9
10
51
35
71
22
2
75
97
35
68
44
75
22
72
91
86
33
29
72
7
97
75
59
16
80
3
36
14
52
90
66
31
76
50
32
82
78
63
29
13
69
15
48
56
78
30
41
18
23
26
63
98
17
6
92
6
9
39
9
22
38
63
98
36
2
94
46
92
65
26
32
80
13
54
16
33
68
59
57
20
28
72
73
23
1
56
32
24
43
14
63
65
93
93
40
43
37
82
82
42
11
8
10
41
42
30
18
89
40
5
16
11
35
30
64
97
18
25
66
13
17
88
29
63
36
43
27
62
85
88
49
52
88
79
89
54
4
47
53
57
76
90
41
72
40
66
90
89
13
30
74
57
55
70
96
73
5
82
62
79
66
22
90
87
66
60
37
14
64
6
17
50
26
13
80
6
7
27
23
93
48
86
95
99
39
62
23
40
5
41
2
76
78
27
41
1
24
89
35
52
52
90
97
76
72
76
72
52
3
41
4
74
74
16
43
89
49
68
96
45
26
39
71
32
26
79
51
21
22
72
86
76
57
51
81
47
7
18
1
70
61
46
47
10
99
71
12
84
3
42
24
72
3
94
98
40
38
50
89
13
33
95
98
12
81
79
97
68
22
4
35
41
12
99
90
39
7
47
9
61
32
78
67
84
96
40
91
100
59
27
92
39
10
92
82
87
97
4
16
17
70
57
65
52
93
30
71
36
90
25
58
4
10
50
4
33
46
87
12
30
47
92
61
84
99
91
2
65
9
67
96
96
29
30
68
20
39
15
99
62
74
10
96
78
45
59
46
33
22
21
48
81
67
99
77
6
78
33
20
86
88
2
13
54
23
43
62
39
78
24
18
55
90
31
67
11
30
45
19
90
63
9
85
76
83
45
15
42
3
97
16
63
83
10
12
81
83
61
84
1
81
52
45
17
65
28
85
7
34
28
34
69
3
67
100
2
16
28
91
69
12
31
22
26
96
68
21
54
37
77
61
39
68
45
18
69
55
40
66
11
53
46
32
51
15
15
64
97
82
52
46
27
52
98
87
82
78
51
1
24
38
88
19
34
69
15
54
41
63
88
14
3
85
15
41
46
29
56
10
91
54
66
22
65
89
18
89
3
90
79
100
38
56
19
53
57
69
27
19
61
72
19
96
90
22
19
57
58
99
40
29
43
74
40
22
55
52
26
74
77
66
70
22
25
16
35
80
66
49
4
5
49
32
80
29
8
43
23
84
16
30
33
15
95
20
61
8
70
31
52
92
6
70
62
43
16
56
38
41
7
3
48
49
51
67
36
45
66
75
4
85
76
56
15
32
2
90
70
68
80
88
55
60
11
56
30
63
27
89
69
42
51
90
3
85
46
83
14
25
6
83
77
91
32
5
17
9
70
51
84
38
70
11
33
44
31
86
29
69
89
27
76
55
13
74
96
44
47
74
67
82
25
38
82
55
46
29
55
63
97
24
23
3
77
80
88
51
1
57
40
85
25
47
33
49
78
83
92
49
18
63
93
18
15
43
81
6
79
10
57
22
98
59
83
87
13
36
2
25
72
40
49
92
3
35
63
78
35
73
96
52
61
87
6
68
41
34
78
93
44
19
88
85
4
7
72
48
94
76
38
30
14
4
54
58
100
25
82
99
89
43
44
87
59
80
25
99
2
57
21
93
17
27
52
41
65
25
22
59
4
38
89
19
17
15
62
18
65
45
49
12
76
23
32
98
83
23
29
81
50
96
21
78
62
31
15
67
73
70
47
84
28
51
89
20
68
4
34
82
66
23
1
71
68
17
81
83
93
69
38
78
70
88
18
97
34
12
49
60
18
2
93
22
10
67
37
79
35
58
15
61
8
5
70
12
26
15
98
47
59
93
55
28
25
46
37
44
100
94
84
91
66
46
3
35
76
49
94
53
51
30
97
82
89
81
95
95
49
62
73
83
33
50
4
17
86
77
27
91
50
52
18
90
27
31
56
34
72
57
44
32
98
45
64
49
70
96
5
67
54
69
90
45
56
31
31
84
100
64
77
55
65
87
47
72
100
36
64
59
74
12
64
16
13
43
99
67
47
99
9
64
7
57
92
21
17
94
45
24
41
58
42
5
66
42
7
24
63
85
66
2
90
64
97
40
30
38
23
41
46
56
95
63
74
68
73
42
61
86
74
81
1
100
71
70
80
4
99
52
48
88
90
87
46
58
57
29
47
41
3
61
91
64
71
100
44
99
89
20
99
53
83
71
9
84
20
99
44
63
53
49
71
50
70
74
97
85
19
52
7
43
2
53
32
46
84
81
9
92
84
60
66
11
100
12
4
74
23
5
8
55
69
55
66
38
95
18
60
38
36
50
31
22
37
24
30
4
60
48
18
40
35
27
3
52
53
43
89
21
10
22
29
30
21
80
87
60
8
1
29
77
32
50
39
55
14
29
47
61
97
68
16
18
20
81
86
33
79
97
65
76
34
38
28
10
100
88
44
28
93
72
65
23
42
6
17
80
58
22
49
23
17
74
16
40
92
30
20
53
36
11
97
27
56
22
86
93
29
12
51
20
82
13
67
95
31
83
16
74
83
3
52
93
62
22
43
28
31
91
90
14
89
86
45
37
87
1
98
9
83
16
43
86
39
68
100
60
42
69
53
6
51
50
75
14
31
80
31
16
63
12
23
74
58
28
52
3
66
50
96
64
61
85
86
57
20
70
97
39
47
88
29
86
58
58
70
42
89
48
36
60
83
73
84
34
98
55
1
1
23
5
1
74
84
23
55
91
92
71
6
69
69
5
37
51
34
80
11
3
76
89
9
84
48
45
51
48
60
35
48
80
9
84
42
23
74
19
12
36
22
65
39
27
82
36
87
18
92
4
94
22
31
35
63
38
28
21
40
98
66
31
24
65
37
53
95
40
25
29
78
63
91
18
50
75
79
43
74
20
1
100
8
69
24
56
20
29
19
68
4
24
54
44
12
88
35
23
38
46
43
34
84
64
13
32
40
34
96
67
78
74
19
17
18
14
16
10
80
12
41
12
84
43
54
42
2
98
40
4
95
33
60
58
43
15
39
27
40
33
67
38
15
37
76
19
89
84
12
50
96
29
11
41
1
35
17
63
56
81
30
6
28
36
23
57
54
67
100
27
78
24
65
84
94
19
88
44
89
73
25
60
92
5
38
42
72
55
36
53
57
30
66
17
60
24
65
25
77
77
81
2
23
20
28
9
72
34
1
10
33
53
45
84
75
50
70
84
37
12
19
40
38
5
58
70
94
69
90
82
9
100
98
92
21
35
92
72
10
42
90
6
76
47
70
83
36
60
51
26
41
64
45
41
6
9
95
3
50
99
55
88
83
25
84
73
66
41
78
77
90
36
99
34
32
7
54
11
17
15
14
75
98
82
50
39
70
49
11
10
27
13
73
97
22
39
65
59
3
40
78
78
50
14
56
41
35
87
18
47
33
44
72
12
73
33
56
74
71
8
34
30
25
39
39
21
48
43
66
100
97
15
6
80
33
31
9
3
74
80
15
16
49
5
48
21
64
58
92
59
34
12
81
95
90
20
41
81
1
46
66
31
42
32
55
26
95
87
60
50
86
64
65
80
58
65
82
84
73
94
93
35
22
42
16
53
56
27
69
32
73
39
73
19
41
8
57
86
95
63
50
64
90
100
67
49
38
94
44
97
11
91
11
36
25
59
72
18
81
32
10
28
74
82
17
38
86
90
46
2
8
29
95
5
62
36
86
6
61
2
6
77
95
22
13
61
29
17
56
53
63
4
55
86
73
3
40
90
24
84
96
46
15
43
99
65
84
4
42
64
94
23
78
94
68
49
16
17
52
43
59
52
59
76
74
44
1
61
11
22
25
92
9
86
3
55
43
34
74
82
66
11
54
22
81
40
45
7
8
14
25
9
58
63
91
47
85
64
70
80
95
60
99
32
69
22
22
11
63
97
10
90
49
1
50
20
62
71
2
11
30
96
38
24
39
82
100
89
83
54
78
52
7
56
51
57
52
35
21
20
80
5
92
50
52
29
25
3
40
65
78
87
38
76
62
49
99
74
10
70
79
19
55
27
40
73
76
27
96
48
97
88
57
4
58
21
23
68
33
38
20
5
63
80
45
66
2
16
68
85
91
33
34
15
48
94
89
20
27
98
88
16
91
99
4
3
47
18
43
72
94
93
43
53
34
4
66
89
76
42
45
90
16
94
14
22
62
46
65
37
28
44
40
22
97
3
71
69
8
22
3
53
33
42
27
31
72
49
12
19
99
82
8
53
19
44
9
88
52
37
65
58
87
58
61
43
70
46
83
78
84
3
21
34
24
81
25
27
71
55
28
8
84
27
35
81
72
17
92
14
12
36
25
83
84
69
56
23
22
21
49
22
76
69
35
11
63
38
73
22
72
38
29
99
91
37
28
43
36
25
37
45
24
20
59
82
18
79
99
98
15
76
85
89
7
54
92
11
41
4
92
47
90
17
35
20
24
8
38
56
47
11
87
29
97
79
99
7
6
42
68
76
30
53
12
12
42
80
33
76
31
45
46
44
92
9
35
15
15
96
59
86
51
64
50
31
17
56
50
25
84
74
34
56
100
9
40
85
8
57
86
62
62
17
20
100
55
19
84
38
29
80
86
59
13
39
67
9
37
64
2
93
27
83
50
11
52
58
84
29
85
48
8
20
44
63
42
36
59
100
8
42
85
88
87
24
9
7
73
78
98
13
15
58
34
42
6
58
81
95
48
99
42
9
59
41
74
4
27
12
36
7
75
24
97
17
14
83
55
85
3
19
95
47
30
99
18
44
18
23
93
8
75
100
9
91
45
77
34
49
99
29
89
91
71
22
93
80
99
72
98
56
13
79
84
65
40
97
35
31
18
92
79
8
49
46
70
18
8
19
24
62
73
17
50
64
4
79
38
79
91
42
60
20
8
36
23
73
89
1
40
95
83
17
37
44
31
63
52
45
19
20
37
35
20
100
10
71
45
30
31
24
82
3
27
52
99
32
86
31
28
49
71
35
94
86
21
2
31
86
16
10
47
27
95
31
84
37
53
56
71
75
91
34
65
50
35
54
83
38
48
95
51
40
16
88
63
51
37
15
36
80
82
7
100
67
29
66
90
38
68
67
9
68
23
5
94
28
39
61
13
27
65
31
42
80
6
2
8
87
16
35
92
56
11
47
80
6
66
30
44
64
53
45
5
60
62
51
5
40
32
68
16
18
15
55
80
36
71
26
9
72
49
20
95
53
60
51
28
29
66
63
43
39
40
70
87
52
11
69
10
24
7
53
14
92
12
17
13
53
62
70
3
32
62
87
78
60
49
33
45
65
75
99
55
97
92
61
32
98
11
39
61
99
87
48
23
28
98
82
6
42
13
99
39
77
80
29
83
6
72
18
13
52
55
53
88
81
50
25
29
38
15
39
30
29
19
61
11
15
54
92
31
19
78
10
15
21
79
57
98
57
52
49
77
17
41
27
84
14
48
43
6
56
56
99
84
88
10
60
14
8
96
88
21
93
47
31
1
40
24
3
20
5
21
58
30
60
53
11
72
41
8
49
8
75
76
72
99
30
28
57
94
3
27
13
31
80
38
74
64
89
56
7
58
77
27
74
16
43
35
59
14
30
19
5
89
83
28
89
49
42
79
3
7
71
16
23
56
41
79
33
99
46
74
73
21
46
52
84
53
95
96
34
49
99
81
86
7
57
35
73
4
23
43
12
38
90
48
39
48
19
26
64
9
7
68
75
74
39
7
20
66
50
41
78
62
11
24
55
46
59
2
42
65
8
34
84
32
41
90
21
90
63
34
27
25
44
94
61
53
98
10
19
63
12
45
43
11
76
41
35
79
66
77
81
93
29
34
75
95
65
26
4
75
14
3
82
87
8
7
29
55
90
95
10
42
62
92
8
28
79
78
3
77
37
9
34
96
36
74
48
63
32
86
51
50
11
79
58
39
48
63
98
52
24
55
64
28
12
98
61
33
3
66
35
12
46
60
100
53
98
14
21
54
16
7
38
37
32
24
6
95
75
48
43
99
73
6
89
17
64
97
22
97
42
41
18
65
97
41
69
15
84
74
63
44
60
82
33
1
40
75
63
85
91
50
86
33
93
15
19
4
89
63
65
15
61
34
68
26
25
63
34
22
71
16
88
30
56
15
3
86
23
87
63
85
43
36
15
54
79
67
32
70
63
96
67
85
80
3
68
29
15
22
93
40
72
57
8
18
26
91
45
91
99
41
4
95
93
9
52
87
43
57
21
38
43
89
23
31
30
45
91
83
58
35
3
26
3
4
83
66
7
62
4
51
64
100
18
93
43
64
53
11
86
37
65
88
30
41
60
3
72
51
53
99
17
38
20
53
85
52
7
16
28
82
45
88
29
69
94
59
24
57
58
49
35
22
19
6
74
93
97
30
99
61
89
92
49
23
58
88
81
43
57
92
24
48
84
62
44
64
54
44
5
70
10
33
69
97
37
77
81
52
34
49
81
57
18
70
82
56
38
67
37
60
42
100
39
79
34
58
94
70
31
71
39
90
95
42
89
3
20
20
20
98
14
12
30
8
9
72
43
18
64
30
79
84
70
48
62
88
13
60
31
46
17
89
5
79
22
67
7
18
10
40
93
63
86
49
51
66
5
85
22
63
71
38
79
96
55
38
85
98
33
92
75
74
71
51
43
12
14
40
70
7
38
73
99
73
58
98
87
36
95
33
23
22
89
21
43
58
72
88
92
88
28
82
8
96
2
54
65
90
47
20
30
14
47
12
79
8
72
19
70
37
47
56
7
92
5
79
37
69
68
86
80
81
81
95
99
43
74
3
65
77
19
44
32
87
23
95
43
2
80
70
74
40
6
63
44
88
71
83
98
64
9
23
35
23
99
25
1
89
62
11
29
37
94
56
64
15
60
27
14
23
75
59
11
74
92
93
57
25
68
29
28
12
78
28
96
62
5
48
33
27
37
14
60
84
81
64
38
88
31
95
76
80
77
71
2
23
14
50
43
73
9
62
12
40
20
32
20
30
1
57
56
25
24
49
53
80
22
76
64
69
19
56
1
20
61
28
52
14
51
93
17
38
24
45
40
45
48
2
68
37
98
73
13
88
4
69
89
47
60
96
24
95
64
56
28
67
32
2
80
28
96
25
93
70
81
6
35
89
86
25
31
33
9
55
4
9
85
23
34
82
39
64
74
23
39
25
5
17
9
69
23
80
6
77
48
19
54
92
66
35
23
72
67
31
65
43
82
86
92
57
66
58
73
28
46
60
6
68
59
44
40
26
64
2
81
79
89
85
3
27
25
45
42
68
17
36
70
87
29
25
22
4
33
64
75
96
5
24
11
95
86
83
56
63
53
40
30
11
54
64
76
87
100
93
70
73
35
87
61
31
43
46
47
78
19
78
56
87
67
23
99
78
18
5
40
96
99
10
29
31
38
86
48
13
51
50
58
50
78
72
35
69
10
35
76
73
29
58
88
71
83
62
79
61
31
68
30
97
49
4
76
5
30
83
88
99
24
25
2
93
38
88
81
29
64
46
76
63
35
46
14
88
32
46
85
58
52
57
96
66
8
93
77
50
70
32
35
57
52
67
63
42
40
92
26
77
97
69
35
8
6
42
63
74
55
46
59
43
86
63
64
79
76
46
87
15
80
82
6
59
6
71
45
61
92
47
25
17
3
89
62
81
29
28
33
37
35
92
65
36
65
48
36
47
52
60
91
35
23
22
43
84
36
80
69
58
46
64
78
93
98
86
9
46
45
48
60
92
39
94
56
66
6
11
65
21
76
6
28
46
51
8
74
100
67
71
86
76
31
79
20
94
44
49
3
33
68
11
97
99
70
96
66
29
62
33
91
78
95
56
79
100
39
83
28
11
95
8
22
2
56
27
73
61
26
9
13
20
47
2
12
33
46
55
58
57
40
35
30
51
9
34
98
15
12
91
98
20
99
54
2
45
14
27
46
47
93
50
40
28
17
81
58
13
44
24
24
48
17
95
58
98
68
56
93
32
95
96
19
56
42
58
12
79
18
67
42
10
70
74
6
21
52
24
72
37
99
95
79
44
27
17
45
10
7
77
27
25
25
40
2
62
54
95
59
39
44
6
13
90
90
94
9
65
94
13
14
3
96
59
6
28
15
98
78
75
12
97
29
6
7
42
21
39
10
29
18
9
61
99
16
44
55
32
37
50
10
21
98
4
78
65
98
9
85
71
21
82
20
17
78
96
86
45
49
75
10
13
64
87
66
88
96
97
82
32
45
55
28
15
91
5
42
40
20
97
11
46
35
14
67
27
35
29
49
23
36
33
99
75
23
35
25
28
99
38
87
94
39
83
94
77
75
83
8
18
67
87
69
65
45
43
7
66
57
37
43
70
98
85
8
20
75
10
19
19
94
38
92
40
80
22
65
56
78
45
17
90
32
34
1
67
5
19
31
20
90
49
3
38
72
58
55
37
33
70
58
86
99
77
77
66
73
100
14
98
57
41
74
92
5
29
3
77
11
29
53
51
44
90
26
93
62
99
73
68
89
84
86
24
14
52
100
90
70
49
55
10
8
31
99
56
68
96
63
99
95
15
18
24
68
47
39
18
90
31
95
75
5
12
5
7
83
99
36
23
67
49
81
10
96
65
88
15
16
10
99
67
49
95
97
59
18
15
82
34
40
13
40
95
43
93
39
81
100
57
59
66
32
7
38
14
94
16
40
51
47
48
13
75
90
17
33
38
18
79
89
77
70
66
76
28
49
90
92
74
90
22
57
91
59
95
50
4
41
36
74
51
60
50
38
8
64
4
83
16
39
32
95
55
95
5
6
29
69
32
83
20
88
68
31
73
40
92
53
37
26
59
74
17
79
46
32
34
16
18
29
68
84
79
72
83
49
80
70
44
16
95
64
41
74
32
87
77
74
1
25
55
84
44
45
1
95
15
5
13
55
14
19
21
68
73
52
46
96
56
81
46
25
94
53
41
95
47
30
40
1
91
76
46
36
82
61
72
86
85
62
70
60
84
3
83
52
6
26
31
53
24
81
62
21
89
69
74
25
38
16
11
29
19
2
7
48
46
40
39
57
8
60
79
80
14
33
26
18
45
90
51
35
38
21
64
90
86
54
24
48
57
43
96
59
74
26
14
54
39
13
38
42
27
35
74
75
71
81
90
29
81
54
21
14
88
68
72
4
88
71
91
88
50
99
12
23
48
84
35
21
14
86
44
50
11
57
76
16
16
76
53
64
58
62
51
69
41
65
50
63
48
30
49
18
68
93
33
100
68
82
21
89
92
53
74
86
15
58
16
2
91
70
4
50
77
99
88
11
42
29
59
51
44
94
100
90
69
54
25
8
95
19
92
12
16
51
78
45
77
27
70
35
3
24
66
34
77
85
24
35
66
73
82
16
28
79
56
61
95
60
72
36
16
48
37
25
76
82
97
69
77
45
57
62
2
85
5
36
80
100
94
95
7
80
89
67
75
75
47
70
39
65
42
96
42
23
99
36
8
43
36
43
89
52
95
72
10
77
64
99
55
84
53
57
85
94
77
48
48
41
4
92
49
48
67
21
5
93
87
22
24
88
81
12
87
3
38
9
86
60
8
66
69
96
13
41
30
100
86
41
84
2
77
20
16
79
98
79
89
64
48
96
50
79
28
72
71
10
73
65
16
88
27
87
52
69
63
60
54
69
56
78
26
1
85
84
66
41
86
49
75
69
54
21
68
81
78
15
84
6
96
56
45
29
66
20
73
22
15
28
53
21
73
55
45
97
35
25
70
21
1
85
80
8
21
99
64
83
28
16
70
25
74
6
8
95
31
17
52
6
95
56
25
50
48
18
34
79
31
46
1
86
69
63
96
43
68
11
37
61
44
7
37
75
48
29
59
47
55
98
46
95
59
10
92
26
59
76
40
37
37
38
100
10
94
60
46
87
62
14
53
12
93
13
76
27
41
86
19
40
29
22
58
80
13
34
96
36
99
78
100
83
64
17
18
30
22
20
9
28
67
77
81
77
94
72
26
36
10
35
31
61
55
46
8
93
10
60
21
31
65
10
6
34
53
60
15
14
1
96
20
83
67
56
95
91
30
98
44
4
66
49
20
100
79
49
57
51
78
11
20
61
32
78
87
75
1
13
55
39
24
1
65
80
87
54
52
42
58
94
18
83
16
34
73
37
49
75
38
10
38
1
18
49
16
64
34
39
60
48
21
66
71
55
96
83
58
91
41
30
37
2
13
31
46
76
97
4
13
7
40
97
70
10
76
50
43
70
18
39
33
87
71
70
60
82
49
34
70
79
92
16
90
10
38
87
69
2
49
33
55
95
53
52
40
82
92
82
52
3
82
6
60
58
50
63
43
47
100
98
20
8
27
5
13
24
74
91
33
17
100
68
99
72
94
33
59
5
7
93
95
90
34
87
15
12
78
4
48
30
58
35
23
10
2
5
53
86
17
28
10
94
96
10
9
40
20
54
63
83
29
46
88
26
6
86
65
94
27
96
41
69
56
60
22
80
63
3
42
24
38
42
20
62
75
38
34
84
51
51
16
90
61
31
40
47
50
70
8
30
72
71
44
100
52
74
85
98
1
38
11
68
67
3
69
5
44
84
73
7
74
95
22
56
22
1
35
67
25
41
59
64
34
54
54
1
17
88
56
20
97
85
41
55
34
18
22
44
46
29
42
21
60
36
66
98
41
42
71
5
12
40
16
33
31
54
79
7
61
44
71
81
78
94
29
47
44
86
83
68
50
17
53
51
45
81
52
31
14
47
17
91
44
14
85
76
60
96
68
1
67
26
88
54
62
8
54
21
65
26
9
59
39
4
51
80
70
17
60
10
22
84
76
87
9
50
99
88
72
20
42
31
90
27
56
13
64
17
84
81
73
35
82
82
62
50
73
25
99
11
53
66
7
15
84
37
96
54
5
66
75
10
46
30
99
48
58
73
36
34
72
41
72
92
86
89
78
85
43
83
99
42
19
64
78
94
80
16
87
10
63
75
73
51
1
56
98
98
22
53
40
84
100
25
25
75
36
76
63
54
97
43
28
82
13
99
65
71
96
58
53
5
30
78
11
18
32
75
57
78
50
52
22
85
44
19
49
44
9
50
12
18
92
76
28
60
26
81
96
90
18
84
14
85
81
20
19
47
5
78
50
11
76
59
26
65
14
40
38
35
22
36
66
5
62
21
83
11
16
52
41
32
66
16
76
60
40
64
52
70
58
66
25
92
18
42
55
36
37
99
90
49
94
91
24
95
72
73
81
72
58
5
78
93
70
18
42
68
92
80
1
19
8
64
74
82
20
1
28
23
91
54
93
87
27
38
44
54
6
68
17
96
52
3
79
30
58
23
10
64
42
39
39
61
20
2
2
77
25
92
86
49
51
28
13
74
94
85
22
78
8
99
62
14
34
56
69
94
83
28
44
17
7
71
91
9
54
80
38
32
44
20
35
82
88
47
35
15
34
46
23
34
98
81
77
35
75
32
68
90
44
97
16
57
70
54
28
72
51
30
95
5
59
74
45
90
26
52
99
96
90
100
41
21
39
99
13
6
12
57
82
67
8
12
38
19
7
77
40
49
58
84
32
40
29
56
82
20
91
75
14
62
22
80
56
4
23
44
46
97
15
80
48
39
66
91
43
20
32
12
23
49
33
99
10
51
23
96
27
96
49
100
4
26
38
32
69
24
17
2
96
42
77
63
57
6
70
91
31
93
27
71
90
65
61
52
62
22
57
33
69
68
70
3
96
44
57
38
5
26
36
57
39
10
52
82
79
80
56
50
77
27
77
28
47
39
75
85
64
38
99
35
59
5
93
65
90
30
99
13
94
61
36
55
40
52
19
2
98
46
41
98
4
57
86
86
39
92
44
39
30
74
97
33
22
28
67
76
65
89
77
70
26
88
32
61
1
54
25
71
56
1
13
64
2
95
8
21
69
51
81
4
54
49
18
56
1
87
58
26
16
36
96
72
75
49
8
24
72
77
39
58
89
57
76
43
7
95
43
87
80
64
75
54
65
56
86
70
66
50
12
59
80
13
56
11
56
79
3
77
74
17
79
69
8
48
65
91
90
38
55
73
5
23
79
63
32
79
21
66
13
31
86
79
57
85
67
41
7
100
37
92
12
17
39
81
20
19
70
84
42
37
81
32
36
28
86
1
18
33
82
88
2
70
97
20
74
16
1
60
59
32
98
11
73
27
22
79
95
64
60
59
1
82
8
24
45
68
57
94
76
56
36
20
42
27
8
29
65
2
71
23
14
31
100
58
5
76
62
32
36
38
83
3
2
77
65
25
88
34
48
37
60
63
14
85
28
97
40
43
88
52
6
43
86
100
17
80
24
17
86
13
15
41
83
28
84
25
79
5
9
63
87
89
95
40
66
46
44
61
25
33
70
65
86
69
93
74
8
82
39
56
50
10
26
20
92
51
98
33
24
69
71
75
33
55
23
78
71
82
92
97
29
49
19
25
55
84
1
89
53
32
40
85
6
13
43
33
90
94
58
34
83
79
64
92
9
19
25
100
97
92
65
65
16
41
25
6
46
85
17
7
30
22
49
57
58
63
63
11
48
74
26
99
40
7
37
54
17
49
12
96
79
6
76
96
20
64
39
80
66
95
74
25
49
10
35
10
42
57
66
83
59
44
68
57
88
43
52
5
91
44
81
90
16
51
2
23
28
9
68
39
29
39
60
64
93
32
98
37
17
99
59
51
37
98
89
3
10
34
14
85
2
4
7
23
33
67
10
10
41
58
70
89
74
96
86
39
69
51
36
15
40
42
14
76
84
14
62
45
50
1
25
11
11
90
82
71
42
46
74
5
30
65
46
86
28
33
82
45
84
78
78
61
47
86
52
19
29
96
95
72
50
30
51
85
88
49
59
27
86
40
72
35
14
75
36
94
90
39
74
43
27
39
12
21
56
75
38
30
88
46
92
11
76
88
79
15
89
39
34
79
48
81
40
31
32
39
26
14
70
81
11
92
49
49
5
87
69
76
28
17
34
13
36
60
45
53
42
62
56
80
33
25
1
67
45
55
99
23
58
11
62
30
10
88
12
90
55
73
82
69
49
76
30
38
97
82
85
90
53
59
54
64
83
53
7
21
32
31
83
59
62
36
54
29
2
57
32
23
51
46
94
10
92
14
7
58
44
30
65
57
56
95
22
7
39
87
16
82
84
91
19
39
82
87
90
2
52
42
75
28
29
96
53
43
17
30
60
76
71
90
65
11
87
47
75
61
47
71
61
71
94
45
4
80
76
42
2
77
29
29
36
51
62
78
31
62
52
81
41
64
70
11
58
26
4
91
47
44
14
97
58
89
94
95
100
85
55
10
36
54
91
59
82
6
64
67
8
7
99
14
16
90
93
79
63
10
3
18
70
41
2
38
80
18
81
37
4
81
35
63
1
23
69
27
68
98
24
70
81
81
69
78
63
84
36
45
97
94
93
5
20
33
75
93
77
59
39
67
82
30
30
29
97
38
62
41
96
22
34
48
22
91
78
5
39
33
29
46
80
8
93
29
25
36
4
61
100
61
42
19
90
64
100
100
14
30
40
44
94
67
60
14
3
98
23
55
89
15
11
9
92
96
37
56
93
46
66
29
80
30
26
81
41
14
21
51
10
11
40
39
69
52
56
98
91
24
95
38
76
6
91
89
69
1
15
57
64
17
10
10
42
77
9
48
33
14
97
47
85
29
74
65
50
29
43
55
7
10
29
28
81
14
23
27
47
77
81
40
90
73
42
36
10
54
76
26
20
28
58
97
3
80
20
43
46
1
95
58
92
37
94
23
95
23
72
3
50
70
60
85
82
88
80
26
57
40
17
72
22
90
63
67
96
72
25
38
3
61
99
49
59
39
4
40
58
21
41
42
27
100
77
52
52
9
28
30
28
26
62
80
65
37
51
86
24
86
4
47
28
75
1
18
13
30
30
77
5
27
61
52
9
79
34
65
22
61
93
81
76
49
25
72
27
83
18
37
76
57
2
8
2
11
87
43
61
66
27
97
57
71
5
42
9
40
61
77
63
72
33
34
73
47
74
97
35
50
100
54
56
89
11
65
95
71
100
44
69
42
38
31
4
13
3
50
74
27
57
42
32
25
75
41
2
7
29
90
18
33
75
34
89
17
87
97
17
66
37
19
87
40
58
35
56
68
57
77
90
79
1
38
79
75
65
33
39
90
32
9
14
1
89
89
66
15
31
72
97
26
88
71
20
16
95
48
14
99
26
59
13
41
75
71
45
33
100
56
76
73
5
79
43
91
47
66
21
32
32
61
44
14
29
7
32
70
17
76
18
63
56
37
69
30
49
74
22
82
96
33
21
92
67
23
45
82
40
26
40
15
90
58
61
46
33
64
59
60
99
45
99
17
98
62
53
75
24
89
20
94
19
52
88
59
1
41
94
96
55
5
83
98
46
35
53
82
43
46
43
2
78
4
45
82
94
55
33
56
24
2
22
76
72
88
14
79
38
70
32
11
97
46
61
81
1
45
37
75
51
19
15
91
41
36
2
76
94
23
55
71
100
47
92
34
91
58
68
70
20
28
24
72
95
21
72
78
20
89
95
83
81
98
44
19
91
13
4
98
89
81
78
82
85
70
11
7
66
14
75
83
44
6
50
90
86
76
36
1
50
72
18
70
100
45
5
75
85
34
6
29
99
2
37
4
73
13
92
10
7
9
92
68
24
22
70
4
22
78
19
73
61
5
85
54
61
48
3
11
8
65
17
70
2
39
13
69
43
8
71
75
32
3
36
27
72
12
18
17
4
61
29
74
52
47
35
91
43
49
9
43
1
53
14
79
33
52
66
16
71
23
65
71
18
35
21
27
10
16
37
4
49
59
100
89
43
19
91
91
94
76
17
78
35
82
65
19
59
63
36
17
35
14
48
70
98
33
66
73
68
74
65
38
100
6
12
33
72
26
62
29
65
44
6
14
11
90
21
86
94
54
40
65
22
3
55
31
5
27
88
71
71
85
51
85
23
46
91
83
72
73
99
100
57
36
39
66
33
98
55
82
45
38
7
81
30
5
95
66
29
91
62
33
41
17
82
92
7
67
47
71
38
36
82
11
14
11
92
20
31
46
32
71
28
90
77
27
53
89
21
68
63
40
28
70
27
25
25
100
86
82
56
36
46
99
36
59
46
3
62
85
27
11
90
36
79
86
82
42
6
77
22
99
73
67
20
92
89
6
25
15
75
100
34
67
93
70
31
83
53
74
36
84
69
84
58
44
100
61
37
75
46
44
8
33
69
17
22
26
24
79
14
37
55
28
95
85
14
87
18
14
10
91
98
65
84
46
21
31
90
23
21
55
84
7
3
52
47
26
75
23
14
2
42
51
65
60
22
42
99
7
72
87
67
25
64
90
75
42
30
84
62
80
12
90
4
90
65
65
92
85
4
46
99
72
14
27
85
62
25
79
34
52
81
69
45
29
97
46
29
51
62
49
14
7
71
3
21
17
80
52
1
54
25
99
86
66
23
43
85
34
12
1
44
52
40
2
42
47
66
6
30
99
15
67
27
18
80
94
41
67
78
71
43
85
54
49
86
25
66
79
96
64
68
85
63
40
26
74
77
9
80
90
67
16
69
76
10
64
9
11
18
29
28
23
2
14
53
95
86
75
57
37
76
52
83
3
26
13
82
61
73
6
21
92
87
3
67
10
79
62
42
79
54
85
55
36
81
40
44
34
98
19
71
21
53
9
90
28
75
98
65
71
23
34
66
37
95
12
40
39
83
34
68
82
66
11
89
28
94
91
29
87
3
77
58
87
44
87
13
16
90
4
27
5
22
72
75
79
72
50
45
6
74
28
47
75
44
99
68
13
42
34
89
2
65
12
60
22
46
94
39
66
18
90
21
6
3
84
32
49
16
50
59
14
96
17
36
57
17
35
6
14
61
43
53
58
62
21
51
13
58
19
71
1
42
53
69
13
12
19
24
77
72
16
60
86
35
67
53
93
60
82
18
65
25
3
45
96
71
43
34
80
35
55
84
25
68
30
48
81
59
100
76
100
72
47
92
1
61
88
53
63
99
27
4
4
64
45
52
29
92
100
19
89
35
82
68
41
12
40
20
6
32
77
8
24
62
60
58
12
6
12
4
67
40
74
48
85
4
35
74
15
26
31
68
60
1
1
68
79
50
19
18
6
9
31
83
48
95
37
82
81
41
48
15
66
72
32
58
56
82
71
21
73
37
95
86
34
47
56
72
45
43
71
29
34
66
10
90
73
77
37
83
24
11
14
61
31
59
93
6
83
97
28
57
57
92
45
27
78
48
11
87
32
49
76
49
100
34
55
73
33
29
73
92
96
67
19
45
83
40
60
5
66
96
67
12
89
58
28
1
57
34
51
8
20
87
41
10
92
14
76
25
32
34
83
71
12
65
94
34
66
15
20
6
3
26
18
99
33
87
69
17
32
49
69
98
36
16
28
23
100
63
42
27
71
92
55
89
19
93
21
67
93
58
68
45
38
75
1
40
80
23
84
74
42
13
96
50
40
16
80
32
51
29
29
81
98
55
93
71
8
66
30
81
62
45
96
19
86
9
69
45
21
91
3
70
46
29
92
4
44
51
29
22
34
37
25
43
23
29
86
46
5
79
46
99
44
78
35
100
38
82
57
78
53
79
41
46
86
27
6
59
52
38
79
33
50
4
72
79
21
53
88
62
99
31
28
33
32
11
96
15
27
11
62
23
43
12
32
34
25
41
75
3
91
45
40
72
83
5
38
61
56
20
58
95
60
67
93
72
25
99
84
3
14
36
60
4
57
68
12
52
5
96
28
74
40
100
72
46
69
95
66
23
16
29
68
27
81
9
28
51
37
82
9
88
65
78
38
27
82
56
18
65
70
23
30
59
43
25
83
87
69
60
24
50
89
45
44
25
40
54
19
38
61
45
32
50
35
80
11
17
40
11
35
82
91
49
100
71
10
53
91
12
39
96
7
93
53
33
92
35
92
90
39
39
93
11
18
50
31
82
42
97
56
100
67
60
34
63
24
16
97
52
90
96
73
24
66
89
49
19
47
71
4
56
54
71
20
64
57
79
9
16
35
52
49
92
4
39
5
32
25
97
10
55
98
1
13
47
40
16
64
96
50
21
3
57
51
19
16
52
35
35
76
51
56
10
95
76
25
20
77
10
45
32
70
76
30
45
16
75
68
81
4
1
1
93
41
16
85
90
50
46
58
19
63
97
63
73
96
76
45
20
42
47
61
88
56
7
61
81
52
86
57
11
24
62
74
5
10
8
73
89
91
73
95
17
63
41
86
97
59
60
12
29
53
70
27
10
61
35
44
1
21
64
78
65
19
5
55
95
83
4
75
11
20
23
45
77
24
26
18
82
10
32
56
76
8
44
60
47
85
71
91
42
56
18
70
56
53
27
59
5
43
40
58
72
43
48
72
13
79
87
76
20
41
85
1
2
1
46
2
80
41
85
41
73
27
19
22
37
22
20
31
28
6
65
92
14
8
96
27
34
2
20
2
41
51
60
10
78
9
70
16
22
37
10
90
54
19
18
79
63
95
53
49
49
78
11
72
53
96
89
32
21
64
4
8
94
74
53
9
16
91
45
93
79
96
50
29
41
2
38
3
41
18
74
98
86
82
20
40
60
18
8
74
81
30
21
22
88
53
4
90
69
79
64
77
77
88
69
71
83
80
64
26
44
23
72
55
17
42
30
4
94
58
55
46
71
49
35
55
21
67
23
9
30
29
34
14
14
80
65
43
98
91
38
30
82
8
79
37
72
27
30
75
84
91
97
84
16
49
6
30
63
67
93
26
84
27
43
4
70
44
69
63
37
31
53
82
87
79
100
76
2
69
80
94
7
9
98
94
48
76
20
88
6
65
64
48
99
40
50
65
77
71
1
50
11
87
42
4
57
11
41
33
24
56
87
65
2
12
89
38
43
5
21
90
18
60
76
87
58
85
70
19
15
69
56
58
33
89
27
69
60
86
83
2
13
38
40
67
20
24
85
95
30
87
30
84
9
35
100
96
82
61
29
75
47
36
46
67
99
93
78
90
59
27
67
41
47
30
36
57
38
71
46
46
12
76
60
9
42
36
91
12
83
85
82
34
1
47
39
9
26
94
93
9
74
35
54
64
51
8
28
23
1
91
70
66
28
37
73
18
96
93
45
84
81
24
37
78
76
8
56
100
89
95
61
92
43
3
42
100
23
3
49
79
69
21
8
31
75
31
7
38
80
68
24
14
90
44
95
43
89
17
48
40
81
37
66
13
94
50
82
99
27
8
41
63
56
21
35
38
89
24
89
74
68
64
42
9
86
32
98
90
23
43
76
34
58
75
22
63
37
7
53
19
44
6
65
28
93
86
73
32
58
50
99
46
60
59
25
15
97
38
59
52
40
44
53
72
65
62
24
49
48
8
29
62
76
34
14
54
5
11
46
67
87
98
81
82
39
54
29
92
71
33
80
66
75
16
27
84
22
59
42
66
7
95
4
86
9
88
54
51
18
97
65
28
67
72
83
92
27
21
33
25
55
89
82
96
29
70
52
49
99
79
73
4
76
23
61
11
94
50
59
40
79
91
41
75
97
6
34
33
92
85
20
41
8
55
43
40
45
37
91
45
25
38
24
97
4
99
88
43
78
34
69
13
77
89
3
51
53
56
44
86
94
94
21
39
39
44
3
47
49
77
3
96
81
47
46
19
19
31
21
70
64
7
32
6
18
2
66
33
28
9
74
69
29
98
85
5
10
37
64
49
53
82
27
70
44
12
8
73
75
15
48
28
86
86
61
51
43
88
89
36
24
76
29
22
24
60
68
48
52
34
80
47
86
98
11
81
48
29
92
36
92
97
77
95
35
81
22
57
40
58
76
20
96
58
44
66
82
45
46
19
65
6
20
64
47
76
35
68
1
71
86
28
41
22
55
69
44
18
98
54
84
24
75
74
65
74
80
91
20
67
1
21
68
86
5
2
11
44
26
34
46
53
100
72
29
10
3
75
78
5
28
39
44
90
17
65
25
70
35
68
72
81
93
28
92
75
57
73
65
93
5
22
11
17
38
1
22
74
3
38
59
73
82
76
60
34
55
86
73
79
88
74
92
91
54
76
29
43
97
19
17
49
53
49
9
90
63
43
6
89
1
33
87
12
48
36
45
90
7
72
97
97
20
41
81
72
92
38
73
5
98
21
44
38
85
38
3
97
20
59
37
47
4
13
46
49
56
13
75
34
4
14
46
30
20
78
76
3
37
8
59
28
98
14
63
82
10
86
92
8
22
86
2
69
11
8
80
82
18
32
1
21
57
44
99
28
89
9
89
100
41
62
79
62
77
53
46
54
3
35
46
64
18
15
23
88
82
85
91
31
83
65
39
16
83
7
69
89
60
16
71
59
14
51
82
99
79
77
42
34
8
2
6
38
96
20
12
44
93
95
55
35
26
68
29
13
65
60
64
84
93
24
9
44
100
19
1
93
64
43
82
78
88
100
51
90
10
51
9
65
93
13
37
60
56
49
63
13
9
14
77
57
2
19
25
49
56
23
97
6
87
74
57
67
29
53
44
86
50
82
28
22
57
20
25
40
98
19
73
31
64
75
81
14
99
80
36
58
34
21
52
98
98
69
34
79
47
44
52
60
45
58
67
59
55
3
72
23
76
75
31
11
78
16
64
81
88
45
68
31
86
51
82
50
32
24
92
94
26
88
81
5
18
40
65
71
94
51
92
2
37
40
40
6
40
61
73
79
2
47
8
3
79
9
45
12
67
34
44
7
96
23
1
99
14
63
15
77
93
7
23
32
23
42
28
65
29
14
89
29
27
46
83
50
95
37
70
52
41
3
75
50
50
66
74
2
65
71
69
42
55
80
41
60
7
95
51
93
97
36
68
66
96
93
57
67
19
83
60
50
8
29
8
19
97
70
17
4
84
34
17
38
65
55
53
16
58
93
91
20
46
42
37
50
23
29
20
22
1
30
37
21
19
47
44
24
24
93
87
13
19
69
78
90
22
54
21
72
46
85
11
73
88
97
34
58
35
81
28
53
41
19
69
7
92
30
96
81
66
76
64
25
62
98
51
48
78
70
38
80
10
68
8
52
18
9
93
96
5
76
16
77
7
17
78
36
47
53
71
46
15
76
80
74
76
43
48
31
78
48
10
6
37
19
94
46
75
57
35
56
32
71
91
22
71
74
88
28
56
37
80
13
92
97
100
16
83
52
25
2
73
77
8
37
99
5
88
40
89
87
9
74
27
23
64
21
45
72
38
35
36
47
11
39
43
72
33
58
38
44
60
43
65
55
4
70
17
25
74
45
81
65
36
61
5
28
54
98
3
11
77
19
75
28
22
78
88
22
43
77
63
74
77
72
6
12
66
42
19
68
44
87
91
51
41
70
35
50
19
71
8
60
76
8
70
61
9
99
68
76
77
12
25
4
73
15
70
78
6
24
88
67
15
59
27
39
85
86
90
83
34
46
14
55
52
51
84
37
39
61
86
28
30
4
76
100
65
43
61
92
70
3
50
77
89
56
63
91
29
92
41
89
34
5
16
42
89
16
100
73
7
75
99
17
13
10
82
35
61
10
98
4
88
49
33
96
76
59
83
21
41
2
23
14
85
40
74
79
64
33
24
50
94
76
10
48
76
36
25
66
51
8
26
8
45
71
9
27
48
22
23
13
70
55
27
89
66
67
64
84
39
32
34
11
61
72
81
87
78
5
66
93
35
10
18
28
44
75
50
81
20
60
71
25
28
1
29
4
28
46
3
61
27
74
53
52
17
53
44
67
61
7
1
74
95
3
96
5
60
93
76
20
89
45
48
40
67
2
18
49
32
50
68
88
55
86
53
70
50
66
13
74
1
28
65
20
59
87
51
16
7
89
43
12
66
56
68
16
96
66
20
83
64
41
48
20
77
91
60
46
43
35
64
75
25
78
87
47
6
75
26
64
28
85
14
80
96
60
10
51
76
72
64
35
4
98
83
38
97
10
57
29
18
13
88
48
71
58
14
60
29
11
34
9
1
18
16
46
85
98
91
73
37
14
72
52
93
70
9
12
49
46
27
3
100
28
13
81
42
53
10
41
89
21
80
55
23
37
47
64
31
81
36
28
33
17
40
28
18
66
32
77
24
40
73
57
54
40
15
4
39
60
40
55
10
58
63
70
35
82
43
19
89
80
39
92
44
30
27
21
93
91
41
32
59
94
79
35
82
57
53
57
61
28
7
29
51
32
89
91
32
10
14
90
78
63
8
26
75
79
58
43
94
100
54
2
29
29
70
37
69
7
85
98
65
11
66
97
26
73
76
51
4
70
79
39
31
14
15
71
36
100
68
75
26
23
23
54
93
38
33
36
39
81
58
97
26
71
69
60
81
31
51
79
16
8
82
36
77
43
94
34
54
92
43
75
45
64
98
47
77
42
6
45
13
60
26
86
22
29
85
70
17
81
33
79
91
65
100
26
7
6
93
21
42
1
44
63
89
79
86
90
10
71
98
92
5
86
44
94
84
12
22
18
39
28
93
26
82
77
31
74
73
94
56
5
92
89
92
4
80
1
12
15
25
2
85
37
31
41
48
43
12
96
64
8
80
27
63
24
20
70
7
67
73
21
62
62
16
19
24
9
3
70
33
19
15
54
40
83
65
80
70
68
100
66
99
55
85
96
84
61
70
13
96
22
70
55
50
99
74
45
70
46
28
100
14
98
49
31
31
24
82
14
67
98
71
73
52
96
31
51
46
85
30
80
19
11
38
40
48
59
41
83
33
99
48
42
98
78
88
71
97
40
31
61
15
83
70
46
42
78
69
99
78
92
69
85
69
91
73
74
60
51
29
22
33
80
92
14
50
76
37
26
65
31
67
66
85
71
25
60
2
27
85
90
47
35
58
43
22
81
83
44
94
43
39
83
13
33
80
24
12
40
78
64
32
17
65
51
51
84
45
51
20
17
21
7
43
40
95
34
83
18
85
96
6
95
94
91
2
68
94
47
58
36
99
7
41
73
65
36
97
46
32
41
88
38
11
88
71
33
36
17
4
19
57
5
51
13
18
55
81
89
33
39
46
46
48
32
18
56
32
88
30
94
67
99
49
81
92
20
50
10
51
60
29
77
29
69
6
77
29
68
49
16
13
76
1
91
40
74
24
82
62
46
29
51
35
72
16
1
87
29
32
44
94
78
4
69
11
35
18
55
61
72
74
74
94
42
62
94
25
56
66
90
18
15
49
73
55
1
23
54
30
84
70
75
87
21
25
52
69
8
25
31
47
83
69
12
29
75
26
87
33
69
80
51
71
19
39
65
90
34
94
73
36
91
53
9
77
55
50
74
52
16
96
70
80
82
78
37
92
74
59
63
99
46
39
46
1
25
39
36
86
39
74
86
47
28
10
88
44
95
72
75
61
83
74
1
66
81
51
51
98
69
14
21
4
44
35
29
23
59
92
50
69
1
59
12
79
27
94
65
75
8
75
80
7
65
41
42
70
59
62
10
81
96
48
56
25
74
96
53
75
10
84
77
99
48
41
34
31
51
69
95
87
33
57
56
29
99
15
86
94
99
88
6
84
30
28
29
21
27
77
61
63
23
87
13
6
59
97
46
30
55
65
47
37
19
39
50
43
60
65
29
2
63
21
82
74
11
65
12
35
92
13
71
52
25
52
70
24
27
41
21
43
51
32
98
91
11
28
80
10
81
84
80
79
95
14
56
16
86
92
18
40
90
89
81
78
69
96
72
46
80
70
27
27
33
4
10
17
9
3
19
38
9
91
68
17
26
48
59
57
74
42
7
13
57
79
11
91
53
37
45
11
97
64
38
59
98
83
70
93
22
47
80
20
40
28
66
41
47
14
58
9
43
59
77
73
85
56
61
55
44
29
2
33
96
83
29
47
88
81
55
93
21
95
26
55
41
44
79
38
86
70
37
64
94
88
18
39
88
68
55
6
99
27
3
73
88
30
96
36
46
98
66
85
89
44
46
43
11
83
70
21
40
56
26
89
30
97
52
71
90
14
86
48
88
31
38
20
66
54
56
33
5
41
19
77
95
4
52
56
87
28
50
71
27
81
19
77
92
13
54
89
39
42
42
6
52
37
17
7
57
63
16
9
83
56
15
50
54
12
67
74
69
93
33
54
24
18
94
73
25
56
54
36
89
15
24
70
90
96
40
33
69
79
92
84
80
89
1
90
94
13
50
44
2
20
91
34
86
87
48
25
42
73
4
54
33
55
66
86
32
8
53
84
8
44
99
62
49
15
79
96
44
98
24
30
77
98
92
11
13
1
80
30
48
68
52
77
50
14
27
43
72
62
15
42
6
59
1
20
72
71
11
91
58
88
30
77
9
39
86
53
40
36
8
28
24
68
29
52
20
66
70
55
84
40
37
37
85
5
61
59
61
32
93
8
46
76
23
62
46
75
36
62
10
38
94
46
64
87
93
52
70
42
95
7
30
30
34
5
75
43
21
56
18
45
95
76
16
8
42
96
95
32
12
97
90
68
2
47
18
29
56
87
76
61
38
51
10
1
21
32
34
97
93
43
7
8
44
24
59
55
98
31
23
29
41
68
14
94
92
30
54
77
71
29
50
75
87
78
5
22
76
36
61
31
96
28
14
73
38
52
33
99
12
14
86
73
3
33
77
30
1
26
50
34
58
25
20
59
26
30
41
14
98
67
25
90
15
12
19
4
20
32
49
96
27
82
54
16
79
52
15
38
52
1
61
70
78
84
97
81
1
75
22
20
18
17
36
7
56
10
76
83
32
78
17
93
18
34
83
50
48
63
4
71
9
40
60
66
57
1
87
30
36
29
59
64
74
74
83
52
29
93
2
79
7
31
5
2
17
78
77
41
33
44
9
31
25
66
72
14
59
64
39
71
5
49
71
19
13
33
34
73
66
38
3
80
32
40
22
40
24
89
81
91
11
35
91
40
62
98
31
56
32
8
97
27
88
79
27
79
67
99
47
9
74
29
26
60
70
53
87
28
95
88
34
32
40
87
5
2
35
20
21
56
78
53
43
96
86
60
82
77
90
46
13
36
90
2
91
19
40
97
68
96
32
2
83
37
31
52
57
92
34
76
13
94
99
63
50
52
68
8
61
63
8
24
52
23
50
99
29
71
19
78
71
1
32
86
28
85
82
89
54
77
55
94
55
91
82
52
21
19
83
22
44
9
68
57
37
23
12
39
39
74
21
53
67
78
95
99
83
58
38
39
22
46
24
60
99
7
8
88
77
40
22
93
82
45
36
90
59
67
81
42
63
78
72
29
14
99
53
51
83
28
56
34
57
82
95
4
39
69
36
2
31
96
36
67
24
21
20
82
57
20
58
76
58
40
68
6
47
14
23
62
16
87
11
32
18
63
85
30
90
72
42
27
74
2
16
70
49
85
32
16
96
92
99
13
2
50
71
19
39
74
19
71
6
98
30
10
11
78
55
38
78
62
77
87
16
83
3
6
79
92
60
2
33
90
78
37
66
23
45
8
39
63
73
64
97
37
15
82
11
84
95
90
33
21
22
12
7
62
23
67
94
17
27
12
29
27
46
33
64
77
93
74
2
13
83
5
42
42
4
44
53
73
21
85
63
48
29
100
64
1
72
57
9
100
71
73
52
13
80
90
23
68
79
32
79
24
48
74
84
84
37
11
25
74
35
20
22
46
4
21
38
63
96
47
85
48
46
47
92
22
31
96
73
19
93
81
10
87
45
78
93
79
19
85
46
53
36
84
96
11
40
16
3
39
77
46
65
80
1
21
73
93
3
55
28
2
79
90
77
61
79
29
96
77
15
9
48
23
60
70
28
100
52
14
64
7
92
91
29
59
28
26
35
54
53
21
38
17
93
10
73
9
23
10
84
83
29
32
24
24
92
6
97
68
55
22
67
3
76
66
22
94
17
18
89
52
27
76
63
99
5
34
69
47
96
20
27
9
50
69
37
32
62
68
34
91
15
12
38
100
72
48
97
70
88
100
24
3
10
10
100
34
3
54
76
28
30
6
66
93
48
25
38
20
94
78
16
20
58
53
7
47
50
54
50
34
40
35
30
69
93
63
26
81
85
70
51
43
82
47
99
32
13
26
64
46
82
17
39
41
50
61
60
96
98
76
41
31
60
42
26
52
75
39
24
9
85
19
50
76
60
59
37
42
41
68
47
77
5
41
72
31
23
32
77
24
11
51
67
76
61
49
69
34
22
84
80
82
24
20
85
93
99
44
23
16
51
55
33
16
51
52
35
15
66
86
95
88
88
4
64
42
19
11
32
60
76
53
1
7
8
42
3
8
63
44
24
90
56
82
60
55
2
14
60
96
95
29
31
50
19
51
64
24
68
47
8
3
37
54
23
80
50
83
86
86
55
44
92
64
89
36
17
43
30
36
45
28
71
97
88
4
93
9
94
93
31
89
30
4
91
37
9
95
99
77
92
62
36
44
94
53
51
98
74
94
38
95
15
1
64
98
59
11
21
72
12
90
74
87
23
54
24
9
43
57
84
23
41
31
93
40
66
47
13
47
60
79
61
19
23
39
29
29
2
24
38
67
56
79
88
45
37
12
81
90
20
47
95
72
79
60
47
77
98
82
38
26
32
60
49
22
44
35
98
92
66
51
84
41
60
90
67
78
79
57
48
100
89
30
94
31
96
35
76
55
100
24
24
23
85
99
36
57
96
63
92
41
67
65
25
46
56
58
61
19
99
17
1
67
81
17
70
23
92
59
82
58
56
31
21
19
84
12
10
60
27
77
49
9
35
12
5
7
61
56
27
3
78
99
65
88
12
3
12
13
11
5
95
34
7
60
3
62
20
96
16
65
89
87
51
4
46
30
97
18
5
57
34
79
41
12
28
1
42
97
54
14
96
91
47
36
78
22
45
48
75
78
74
43
73
7
52
32
15
82
58
34
94
36
74
85
18
98
92
69
9
36
68
83
78
25
69
28
37
94
69
17
6
56
36
64
84
21
33
69
25
56
49
24
42
84
7
55
93
76
33
63
71
44
14
1
9
79
38
67
28
59
81
82
90
36
11
56
34
54
2
6
94
48
24
20
48
24
11
74
57
33
45
12
98
80
28
31
91
49
53
92
47
24
59
35
96
67
16
72
45
74
63
95
96
29
86
95
53
7
24
3
96
50
72
92
38
10
28
94
75
99
85
82
98
50
51
91
63
55
60
3
31
13
51
56
47
35
47
25
19
30
37
37
91
98
29
33
13
88
46
53
94
14
34
48
9
66
80
14
17
48
88
40
24
5
39
38
24
57
7
74
33
13
84
74
22
15
51
8
90
26
89
5
15
88
68
23
86
8
90
5
5
85
93
49
99
42
79
38
30
40
27
77
87
46
5
32
90
24
88
41
48
34
51
73
75
41
18
92
15
53
84
98
55
20
67
69
19
62
27
43
67
46
7
49
42
66
12
56
44
37
92
89
51
44
5
14
87
26
5
37
33
40
39
70
59
55
96
85
66
7
72
58
77
20
71
57
98
28
57
82
15
53
86
77
55
98
22
56
54
57
65
93
87
63
47
23
33
56
96
26
39
79
22
51
22
73
64
98
12
42
48
87
42
80
13
8
65
16
55
76
78
90
43
2
85
17
43
88
43
83
30
78
55
31
7
23
68
51
90
48
20
36
8
37
8
96
92
76
25
31
55
47
62
99
3
56
63
7
99
94
5
90
55
94
52
30
38
24
97
40
90
84
85
83
52
81
80
38
41
14
75
94
86
44
61
29
56
92
100
69
68
93
12
48
81
29
86
90
36
8
73
22
36
2
57
8
96
32
15
33
43
25
6
4
66
37
19
90
55
23
73
88
54
5
97
7
25
54
45
98
57
31
64
99
41
12
10
62
33
48
62
56
73
30
90
60
70
10
97
92
98
10
50
31
22
2
62
43
79
6
45
81
96
33
54
37
4
69
18
88
71
73
67
7
96
48
34
77
67
70
54
18
8
90
7
8
9
94
84
16
31
19
13
85
72
24
2
56
2
45
21
75
4
77
55
41
15
25
82
73
95
86
86
87
44
19
82
48
40
23
98
73
79
57
43
2
73
56
89
39
78
98
97
22
81
81
93
81
83
8
50
68
25
96
47
4
95
43
89
53
31
53
56
31
61
59
13
1
73
97
53
53
69
37
9
88
36
78
40
7
82
88
31
5
85
20
68
96
21
16
39
78
97
10
54
76
42
77
27
17
50
90
52
53
42
1
51
85
97
80
39
64
2
6
75
87
90
94
8
30
82
88
28
65
7
1
20
21
94
50
86
45
40
15
37
21
26
97
82
43
84
62
12
36
54
50
53
48
3
19
77
93
71
37
64
9
52
83
96
49
89
79
25
57
40
25
6
14
82
68
9
2
18
54
43
82
86
50
22
72
62
15
75
96
7
59
48
62
87
83
83
93
89
90
25
30
39
98
51
25
81
86
55
41
30
74
29
38
17
24
84
34
85
94
58
59
57
39
60
15
30
8
93
58
25
68
23
28
96
45
63
27
33
60
13
21
7
60
45
88
9
35
87
49
1
29
84
60
40
53
19
56
63
56
78
63
11
47
78
26
66
13
47
75
78
47
12
4
55
74
49
20
61
96
29
93
87
77
56
97
99
10
47
85
13
38
10
12
51
13
92
65
36
54
94
88
8
46
75
60
97
79
82
20
47
61
44
11
79
92
25
80
76
97
67
42
68
15
27
81
23
54
97
52
6
47
72
88
47
24
43
63
99
60
70
23
4
10
48
97
90
77
45
97
86
83
8
84
55
4
32
78
93
88
85
15
35
14
74
20
16
92
85
47
2
66
84
42
52
25
72
70
75
87
91
13
26
95
26
53
52
51
72
98
45
83
34
100
37
87
54
27
79
49
42
60
77
53
22
32
3
29
42
62
91
7
53
71
50
68
23
35
18
92
68
75
52
15
36
81
64
20
42
25
89
64
55
46
56
39
95
25
22
8
97
98
53
98
35
38
39
51
82
62
3
72
79
70
58
68
100
32
33
36
54
100
69
51
9
62
59
80
13
100
93
98
44
23
62
94
86
67
93
7
20
95
41
21
30
38
88
49
38
77
29
18
15
31
73
75
55
28
47
65
27
98
85
57
84
54
66
99
95
63
31
49
10
77
91
11
67
76
75
64
14
53
28
79
27
86
18
92
34
70
41
66
70
54
3
83
34
27
60
15
91
65
39
87
67
39
52
60
40
12
48
22
75
55
38
1
26
70
83
57
83
44
68
78
45
8
21
50
12
27
11
17
81
62
98
59
48
48
78
48
23
98
80
58
52
42
22
93
54
96
31
63
68
60
16
59
24
32
16
67
88
53
23
68
97
47
53
7
5
77
52
38
76
65
19
62
59
49
70
92
83
6
100
63
90
11
56
76
14
55
59
89
96
22
81
94
54
3
72
42
78
52
28
97
51
11
32
56
41
85
98
55
69
11
15
55
63
24
86
36
49
62
31
37
53
56
72
22
34
81
68
12
24
48
96
10
23
99
88
45
35
33
34
88
10
39
37
95
31
34
32
99
66
21
18
96
57
59
37
86
61
95
80
42
23
73
8
30
63
81
71
10
63
36
47
41
95
11
61
44
66
29
99
32
50
16
22
47
47
65
31
95
28
41
41
20
23
14
26
81
87
90
75
23
49
98
38
70
65
14
10
69
43
77
30
49
68
16
15
1
97
65
47
74
99
23
95
16
72
56
42
95
35
46
95
17
66
90
35
11
65
95
12
45
53
55
96
84
67
74
25
28
62
21
13
33
10
71
45
90
57
57
23
39
95
92
42
66
2
77
55
46
86
23
68
95
75
33
34
85
73
58
24
11
16
55
80
71
92
4
90
26
16
100
76
78
19
40
70
1
50
55
57
53
62
3
80
61
61
94
94
23
24
39
87
86
95
18
63
44
92
81
57
46
6
69
65
93
66
100
57
34
94
2
74
64
51
40
99
64
61
36
62
39
33
88
96
34
38
7
40
44
21
13
100
65
26
70
58
46
90
38
8
21
81
93
41
14
41
60
52
33
26
76
51
4
34
80
41
5
25
63
97
93
9
4
3
11
18
1
23
3
92
71
69
31
6
25
76
79
86
41
76
97
56
85
88
91
33
17
25
54
14
98
6
49
36
35
64
83
1
55
46
80
100
95
90
66
36
59
14
93
91
37
18
55
67
8
52
74
52
90
70
76
95
98
64
64
92
64
82
34
7
39
59
53
10
26
97
70
71
40
75
26
96
61
85
5
69
77
82
34
57
83
9
35
30
76
2
81
51
56
71
21
99
58
75
42
8
27
8
94
90
16
86
16
55
81
84
25
80
42
23
36
21
38
30
51
1
69
19
11
38
55
29
18
100
58
24
80
36
8
100
12
20
81
78
64
79
68
22
32
86
88
94
68
3
3
86
65
15
35
19
36
27
96
29
82
9
48
68
85
25
52
34
43
95
3
66
16
7
26
52
36
59
84
29
50
33
98
44
93
31
50
75
98
80
36
80
63
49
80
63
79
26
49
45
2
40
58
39
76
18
50
21
63
88
92
38
42
84
46
81
81
74
53
31
40
29
30
36
75
45
38
65
29
94
89
57
94
50
83
82
47
43
77
15
82
8
89
46
25
47
39
35
54
32
95
95
96
32
10
62
45
29
76
19
75
35
14
96
27
86
12
12
46
62
3
53
94
29
71
51
51
84
41
4
16
84
2
45
14
24
26
77
43
19
82
12
34
70
41
5
26
88
94
90
57
59
47
78
4
47
41
84
34
14
61
1
56
68
82
6
7
52
83
37
19
57
43
66
6
45
100
50
88
15
41
35
32
78
66
54
2
74
3
6
9
43
57
98
77
36
28
23
41
15
2
48
7
8
77
99
88
75
48
65
91
50
8
77
98
17
90
49
60
42
58
22
75
48
10
32
70
92
44
11
48
38
35
96
16
74
31
9
47
99
39
2
15
61
57
96
93
27
8
69
28
32
5
89
72
74
86
65
2
65
59
10
81
61
43
16
63
99
4
10
71
79
40
59
84
59
54
77
60
12
16
41
43
6
69
26
63
76
85
11
5
55
74
20
79
67
42
32
73
12
74
60
42
35
9
42
22
25
61
97
18
30
32
96
60
68
26
42
58
43
27
76
58
1
25
82
68
55
97
38
96
50
71
34
83
15
25
20
89
3
13
68
71
50
58
40
72
51
21
75
69
87
55
55
29
6
88
17
93
75
20
66
55
66
69
28
16
90
100
62
62
77
36
55
62
58
18
8
100
100
58
31
61
17
83
28
48
31
35
75
93
70
50
90
12
80
28
43
7
83
82
63
53
47
53
4
55
30
82
37
89
40
37
32
38
35
25
1
30
88
34
39
76
72
34
83
60
82
86
73
67
70
20
62
50
11
23
27
62
42
42
6
49
9
95
60
86
15
65
15
7
61
7
29
72
85
57
66
73
82
76
67
24
21
7
20
77
35
85
81
34
45
93
62
48
90
96
78
81
35
45
60
5
65
70
33
43
69
77
16
23
2
57
61
2
26
21
58
91
76
86
54
99
68
44
56
64
60
29
65
38
38
58
34
63
27
11
29
1
14
89
35
73
99
90
94
79
20
53
57
33
10
93
65
15
29
10
93
9
53
35
66
63
53
82
84
82
22
77
24
79
20
64
18
20
60
78
24
18
94
59
94
26
57
71
8
24
18
62
92
90
16
98
65
95
86
86
17
50
86
96
18
47
94
9
64
82
94
88
89
51
12
35
64
83
38
48
42
92
85
33
64
96
73
80
33
21
42
53
67
87
11
1
78
99
1
89
88
91
35
37
91
35
97
7
45
86
55
5
43
31
92
82
14
3
68
57
6
8
52
39
32
45
29
55
8
73
72
9
100
22
84
72
53
14
49
33
4
48
86
64
4
69
40
70
38
39
38
46
49
8
79
90
8
44
19
27
24
68
8
40
27
82
80
6
81
62
9
92
58
15
58
59
82
5
57
65
9
75
68
75
58
73
76
34
41
93
9
49
18
57
12
10
78
9
24
82
16
56
42
91
17
10
68
9
61
36
97
61
34
100
75
82
91
27
87
93
26
72
66
9
23
71
62
7
9
17
35
53
4
23
84
88
11
67
75
2
12
65
47
46
22
39
16
57
91
58
84
11
39
80
35
99
85
100
61
43
52
41
62
85
46
83
60
82
56
32
32
24
52
72
63
67
16
87
95
88
8
88
51
44
52
67
3
69
39
17
21
20
92
100
22
52
56
66
90
40
37
71
84
98
99
51
68
60
92
14
38
95
13
74
16
87
95
19
4
63
83
70
21
90
33
13
11
20
91
62
61
22
81
81
5
2
96
47
67
48
47
91
50
41
82
54
44
12
34
13
72
15
29
8
76
9
93
19
73
50
96
25
59
99
20
98
82
12
2
27
91
4
57
48
53
93
27
22
43
69
67
78
18
27
82
93
61
39
42
82
49
17
94
49
16
52
27
99
62
57
50
11
32
100
87
52
83
66
92
8
75
5
94
13
45
69
74
78
31
39
47
77
29
14
47
94
55
35
68
93
15
41
51
22
10
90
100
75
13
64
30
56
34
6
46
8
18
71
66
11
27
67
42
83
44
41
31
73
25
76
80
84
57
95
11
93
61
81
71
98
24
57
56
1
74
24
29
6
38
11
22
97
24
64
47
10
35
33
72
22
87
47
11
34
19
2
92
29
10
69
80
33
18
69
15
81
39
6
84
44
56
61
54
49
51
89
40
34
36
94
72
87
74
75
14
75
99
24
13
86
82
8
35
32
34
62
70
49
22
63
76
86
79
74
35
27
91
52
66
91
72
3
7
22
38
94
1
89
55
18
23
41
32
64
92
66
80
88
86
79
52
90
15
68
70
99
34
28
84
15
35
32
81
38
10
48
36
85
12
25
100
35
7
5
10
15
70
64
39
59
97
50
89
8
66
43
17
94
49
18
76
35
12
49
5
49
17
85
32
10
30
12
92
25
14
34
100
70
29
11
15
66
18
38
28
37
32
2
74
14
67
33
29
30
68
24
82
34
7
65
4
26
43
34
59
67
53
91
26
36
83
88
54
82
68
56
47
35
40
20
19
26
10
31
42
55
39
23
69
76
88
65
34
44
96
48
67
94
22
70
83
7
40
78
67
63
77
5
8
60
42
63
41
22
60
2
21
90
49
46
45
22
46
29
94
55
25
82
79
42
80
27
30
20
6
1
54
68
32
86
48
4
9
29
10
50
81
76
96
7
89
16
12
90
56
97
45
20
45
98
52
82
4
81
100
60
81
10
29
59
6
85
38
79
27
27
68
48
76
95
6
84
70
76
82
89
65
32
3
16
79
74
83
63
33
86
67
27
67
27
13
28
11
92
26
67
67
52
2
21
85
55
77
2
37
37
72
45
31
17
45
80
49
28
52
100
4
69
88
77
11
73
70
68
38
5
100
35
62
59
89
95
80
38
73
76
8
63
3
76
14
22
41
93
2
36
4
84
36
76
24
61
69
36
76
4
9
21
37
74
17
36
7
93
67
50
56
65
70
42
17
51
29
66
74
8
24
95
82
77
30
19
61
37
42
90
3
25
57
25
15
57
13
38
36
13
36
32
75
26
11
96
98
47
86
14
53
44
90
46
60
81
77
29
13
25
46
45
99
43
64
63
67
32
99
34
45
76
78
82
66
27
5
72
21
98
33
80
67
85
10
62
21
62
62
10
62
77
40
81
56
29
69
50
49
16
44
61
27
7
37
31
66
13
7
47
90
3
31
9
84
25
44
74
89
91
98
12
77
82
60
24
67
33
30
58
34
85
44
60
33
99
9
41
59
79
15
35
12
2
93
93
13
23
40
64
55
4
36
39
18
15
89
90
86
82
91
96
33
21
49
41
63
97
38
82
47
8
38
20
62
70
62
33
55
74
53
75
30
2
81
65
99
36
84
31
35
82
74
55
50
43
1
56
18
67
91
68
96
20
92
37
46
93
12
39
83
35
43
83
52
28
14
49
93
75
25
64
21
77
30
77
80
89
78
90
24
60
56
17
85
94
78
38
16
99
3
71
45
45
99
92
51
33
46
19
45
17
5
53
6
78
8
7
18
23
69
8
84
94
90
28
37
30
37
19
100
27
73
60
68
34
49
29
38
53
13
96
43
39
93
11
30
41
30
56
8
90
76
25
61
5
34
12
38
8
50
52
64
37
9
33
65
61
68
7
100
51
33
63
74
8
73
73
26
85
7
69
58
15
63
94
18
24
83
65
49
50
30
38
12
89
67
30
89
24
14
12
41
76
78
89
78
27
47
67
13
64
42
51
37
99
27
94
9
13
24
37
23
11
68
48
30
26
17
34
21
93
95
62
29
16
64
29
54
94
21
17
4
52
23
25
35
45
64
2
71
95
23
24
78
25
10
63
48
17
35
68
62
98
67
84
65
59
88
32
3
27
5
3
12
10
19
28
60
95
92
44
75
50
30
91
96
93
48
23
64
89
22
61
100
19
85
88
5
83
28
34
32
100
41
94
32
46
50
83
28
66
19
82
37
88
23
42
32
88
36
2
46
13
65
24
12
31
39
42
36
77
26
12
39
38
85
77
11
79
97
45
57
18
43
4
36
5
77
62
28
97
36
56
28
79
83
56
27
82
76
77
71
43
88
40
90
37
45
23
30
43
96
40
63
17
82
53
43
96
8
84
94
83
96
14
23
26
40
33
59
20
1
78
41
70
31
91
72
61
30
16
84
7
18
62
53
73
40
56
40
72
51
46
9
62
1
27
43
36
29
38
8
27
63
33
97
43
36
59
98
57
28
17
6
84
55
4
37
75
55
57
19
71
56
41
65
67
65
20
80
66
71
46
67
28
69
69
35
10
78
94
97
88
68
27
47
76
82
38
40
65
81
69
77
98
28
87
91
83
70
8
73
58
47
100
57
75
15
26
11
68
69
32
36
92
11
23
12
47
71
84
24
26
74
7
11
49
27
14
64
8
81
98
23
60
49
76
61
95
59
27
38
66
92
40
71
32
70
64
96
28
76
26
92
66
92
23
91
91
88
98
6
13
9
38
63
65
63
40
23
87
73
8
85
25
52
15
48
19
40
77
18
27
67
46
73
97
41
87
47
100
54
98
98
22
53
76
59
97
74
41
29
98
87
17
14
29
99
13
19
9
100
43
47
12
64
92
85
49
57
32
72
89
32
22
100
86
29
59
31
15
54
42
96
21
84
7
13
63
15
71
82
24
77
25
94
80
83
22
65
12
55
43
25
39
86
3
61
94
72
91
89
94
80
69
75
9
99
87
60
51
89
38
82
40
15
100
22
61
36
45
67
19
5
18
1
82
88
17
32
95
84
69
3
45
93
8
93
73
69
18
27
24
71
16
88
45
11
65
71
56
77
20
59
46
66
64
43
49
38
66
36
81
30
88
4
93
57
59
96
27
87
12
15
74
19
33
82
50
74
67
69
3
58
55
52
23
63
69
86
87
30
32
7
21
71
53
71
87
33
28
76
52
73
97
38
28
3
81
67
28
14
10
30
4
64
39
29
75
88
12
83
96
11
73
57
97
82
16
88
56
43
31
64
6
84
85
20
99
75
7
21
9
23
72
67
17
100
19
31
84
44
45
96
19
62
43
96
53
60
73
6
62
100
7
10
26
19
89
36
16
51
34
63
33
19
73
9
19
59
37
80
83
86
37
74
65
5
17
11
33
41
45
44
33
4
2
56
44
26
34
31
22
68
4
52
11
1
99
80
13
22
7
29
73
88
88
23
49
31
100
1
24
18
60
1
74
62
19
68
49
2
13
41
17
38
56
90
73
26
60
5
63
83
20
32
49
66
74
72
56
72
78
30
95
35
34
14
31
24
75
37
18
41
95
97
9
61
82
55
23
52
12
96
11
23
8
9
49
7
47
50
90
47
51
83
23
21
12
25
5
74
82
50
75
14
81
56
19
14
45
37
26
70
32
24
19
87
86
53
48
5
58
90
37
52
7
25
43
25
47
43
8
93
31
53
38
34
12
85
91
84
73
50
7
53
1
89
94
84
53
14
60
56
52
8
31
60
85
70
95
62
2
43
5
99
86
97
9
82
73
2
45
45
69
64
75
37
69
52
20
55
98
1
46
19
44
75
98
50
30
1
12
49
32
62
74
24
83
22
69
82
53
4
60
45
78
61
27
19
50
12
51
34
39
47
69
61
97
92
71
92
72
98
83
43
7
15
30
88
84
26
64
69
72
18
26
51
38
4
15
93
84
69
60
44
38
34
57
18
73
9
12
36
32
33
88
33
39
37
95
6
17
46
54
46
85
48
66
77
86
37
68
61
62
55
58
10
5
60
70
57
35
8
20
88
47
18
16
47
47
35
64
61
98
23
41
26
63
21
71
90
58
77
56
60
62
22
27
79
78
13
48
91
81
23
73
99
94
29
69
32
93
17
73
14
17
6
95
94
86
100
62
64
31
43
41
15
22
70
93
5
93
77
100
94
72
83
20
40
70
29
88
68
47
48
5
75
87
60
89
67
46
85
71
99
22
41
77
43
7
27
79
25
44
94
70
62
27
24
28
39
75
16
73
59
33
11
25
7
11
12
87
1
50
31
86
88
82
30
79
84
76
51
24
66
87
26
68
58
36
99
28
68
45
90
2
19
2
11
16
93
29
69
67
80
48
76
89
22
6
66
68
69
76
33
76
65
8
81
95
88
43
36
41
16
32
88
95
51
27
34
3
83
75
30
66
1
9
33
62
69
13
9
36
67
30
81
63
66
23
55
17
22
39
42
51
49
2
82
60
70
45
60
44
89
94
57
8
19
51
40
37
54
21
3
57
46
58
15
87
59
64
37
11
55
93
2
31
51
27
34
17
98
65
34
84
18
93
7
79
24
70
22
90
78
33
42
95
51
59
67
59
51
26
18
72
61
88
10
21
39
55
3
24
10
63
37
63
9
38
32
20
36
9
90
5
3
66
85
45
89
25
4
44
56
44
48
41
12
45
59
9
61
7
80
20
90
67
90
25
25
46
37
97
82
77
55
49
85
2
40
61
77
87
20
55
23
4
2
44
17
45
26
13
54
74
57
88
10
72
42
12
12
7
86
64
6
60
20
53
70
30
59
83
50
92
30
69
71
69
37
86
42
93
23
28
57
4
40
18
96
44
79
69
53
90
8
43
51
66
11
9
58
46
5
95
60
46
20
54
83
65
100
29
44
95
57
49
97
87
27
68
87
12
68
61
75
73
47
63
61
25
66
72
44
51
50
82
20
43
32
75
81
87
51
77
67
23
17
94
31
30
74
39
41
43
25
15
38
17
77
30
73
100
22
20
34
5
24
30
97
84
85
56
50
32
78
8
73
4
22
91
73
90
35
21
14
29
47
47
15
16
48
54
39
57
18
99
33
4
98
4
30
81
55
10
39
47
60
28
25
19
80
16
59
61
53
51
24
46
39
77
25
79
27
36
46
46
49
83
85
56
19
33
90
20
6
87
2
44
82
88
26
10
68
44
28
86
64
59
44
83
61
20
68
11
15
90
14
53
84
67
4
68
64
70
21
84
58
7
23
16
80
50
82
50
33
60
16
63
90
41
98
44
64
59
89
62
11
37
7
90
55
7
94
91
33
72
75
27
46
53
51
81
24
57
24
100
14
21
19
41
39
51
83
46
39
60
20
83
22
50
61
60
14
36
98
57
3
3
90
10
2
79
43
22
96
96
67
74
5
43
25
52
69
63
80
33
100
80
46
47
27
83
79
58
88
46
44
19
2
95
63
1
33
97
43
5
83
58
30
91
43
5
14
24
48
32
99
77
4
27
24
31
28
11
62
66
5
46
86
69
85
100
18
99
28
71
46
36
67
12
29
1
66
11
11
3
10
5
84
57
3
7
89
15
72
76
92
72
76
31
62
18
24
82
52
60
24
74
18
75
20
9
73
22
92
76
73
46
13
12
65
75
52
83
6
19
19
40
85
99
40
50
54
58
93
57
93
87
52
27
96
98
31
7
89
58
33
74
88
6
35
94
36
46
93
56
66
73
92
49
50
17
94
69
54
12
54
89
7
18
50
4
30
68
40
77
5
19
64
47
10
73
20
17
20
81
5
35
23
63
32
30
47
56
24
90
82
32
55
22
70
35
51
9
36
26
90
26
52
56
56
67
53
20
67
51
22
60
94
46
68
54
20
56
31
79
63
13
44
8
29
100
85
73
39
67
85
42
2
95
10
49
68
62
29
78
44
37
5
86
33
93
25
59
17
70
4
45
77
94
23
57
58
91
82
47
48
99
24
79
52
79
62
48
55
16
28
38
26
66
39
50
74
96
52
42
73
56
38
61
87
41
39
19
4
29
14
45
95
41
20
64
65
41
100
39
100
88
59
36
32
69
60
16
93
38
45
3
7
70
49
10
98
34
35
97
12
29
59
93
74
76
27
82
12
93
87
99
82
11
83
51
72
55
20
72
68
87
15
63
27
73
86
98
58
24
60
50
49
90
59
34
55
29
48
37
11
39
14
39
34
1
15
21
5
72
58
84
60
78
12
2
10
23
48
40
11
70
37
35
52
96
16
92
98
42
25
18
85
69
69
38
73
82
42
25
34
39
91
82
26
31
57
93
72
6
85
96
17
42
80
42
55
54
70
14
35
19
13
65
27
28
79
75
87
44
97
33
42
73
22
77
92
53
76
29
74
30
18
73
7
3
99
62
85
84
96
70
76
32
27
66
72
62
5
79
79
58
92
59
5
34
26
54
4
34
7
53
25
5
29
96
25
99
70
79
97
82
87
12
68
20
100
22
32
61
82
12
59
63
52
94
59
61
79
74
83
60
53
68
18
6
1
43
97
100
84
66
73
5
92
60
21
80
40
72
62
80
76
22
36
36
52
86
20
88
7
73
78
88
8
28
30
79
42
70
48
26
58
83
45
71
89
47
33
47
36
1
15
18
80
68
68
82
54
52
40
73
50
30
14
44
98
46
15
89
94
14
2
16
77
79
31
50
81
64
93
21
80
39
82
15
11
48
81
42
58
100
57
33
86
73
74
28
77
47
9
50
88
16
95
20
61
6
58
93
2
54
65
18
15
45
23
85
99
91
8
59
54
97
68
74
52
14
61
9
54
61
96
9
19
14
19
62
85
16
58
84
18
73
88
76
17
35
21
63
50
75
70
97
83
12
13
68
54
10
70
94
58
63
76
62
50
40
91
99
97
10
85
28
36
86
69
78
45
10
61
7
7
39
48
69
36
76
76
49
86
76
29
92
71
80
5
100
58
72
13
72
55
40
61
45
51
57
1
1
94
90
59
89
46
40
77
55
9
33
63
16
14
20
22
48
61
71
26
36
37
